<?xml version="1.0" encoding="UTF-8" standalone="no"?>
<svg width="91px" height="35px" viewBox="0 0 91 35" version="1.1" xmlns="http://www.w3.org/2000/svg" xmlns:xlink="http://www.w3.org/1999/xlink" xmlns:sketch="http://www.bohemiancoding.com/sketch/ns">
    <title>allergan</title>
    <description>Created with Sketch (http://www.bohemiancoding.com/sketch)</description>
    <defs>
        <path id="path-1" d="M0.0300037353,0.483060138 L87.8849411,0.483060138 L87.8849411,11.4714281 L0.0300037353,11.4714281 L0.0300037353,11.4714281 L0.0300037353,0.483060138 L0.0300037353,0.483060138 Z M0.0300037353,0.483060138"></path>
        <mask id="mask-2" sketch:name="Clip 2" fill="white">
            <use xlink:href="#path-1"></use>
        </mask>
    </defs>
    <g id="Page-1" stroke="none" stroke-width="1" fill="none" fill-rule="evenodd" sketch:type="MSPage">
        <g id="Artboard-1" sketch:type="MSArtboardGroup" transform="translate(-498.000000, -25.000000)">
            <g id="Allergan" sketch:type="MSLayerGroup" transform="translate(499.418158, 39.254887)">
                <g id="Group-3" sketch:type="MSShapeGroup">
                    <use id="Clip-2" xlink:href="#path-1"></use>
                    <path d="M14.6538243,8.65307726 L3.2604059,8.65307726 C3.11088729,8.65307726 2.96086861,8.72808659 2.8483546,8.8406006 C2.69833593,8.95311461 2.66083126,9.06562862 2.66083126,9.25315196 C2.66083126,9.44017524 2.69833593,9.55268925 2.8483546,9.70270793 C2.96086861,9.81472187 3.11088729,9.8527266 3.2604059,9.8527266 L5.80922321,9.8527266 L6.55881653,9.59019392 L10.6063204,9.59019392 L11.3559137,9.17814262 L14.6538243,9.17814262 C14.8408476,9.17814262 14.9158569,9.10313328 14.9158569,8.91560994 C14.9158569,8.72808659 14.8408476,8.65307726 14.6538243,8.65307726 L14.6538243,8.65307726 L14.6538243,8.65307726 L14.6538243,8.65307726 Z M16.1155063,7.04137661 L1.68670999,7.04137661 C1.49918664,7.04137661 1.38667263,7.07938134 1.23665396,7.22889995 C1.12413995,7.34141396 1.04963067,7.49143264 1.04963067,7.64145131 C1.04963067,7.82897466 1.12413995,7.9409886 1.23665396,8.09100728 C1.38667263,8.20352129 1.49918664,8.24102596 1.68670999,8.24102596 L5.02212522,8.24102596 L5.77121848,7.97849327 L11.5804417,7.97849327 L12.330035,7.56644198 L16.1155063,7.56644198 C16.3030296,7.56644198 16.3775389,7.49143264 16.3775389,7.30390929 C16.3775389,7.11638595 16.3030296,7.04137661 16.1155063,7.04137661 L16.1155063,7.04137661 L16.1155063,7.04137661 L16.1155063,7.04137661 Z M16.9026043,5.43017602 L0.599574643,5.43017602 C0.449555967,5.43017602 0.300037353,5.46768069 0.187523346,5.61769937 C0.0750093382,5.73021338 0,5.84222732 0,6.02975067 C0,6.17976934 0.0750093382,6.32978802 0.187523346,6.44180197 C0.300037353,6.59182064 0.449555967,6.62932531 0.599574643,6.62932531 L4.46005525,6.62932531 L5.20964857,6.36679263 L11.9554884,6.36679263 L12.7050817,5.95474133 L16.9026043,5.95474133 C17.0521229,5.95474133 17.1271322,5.87973199 17.1271322,5.69220865 C17.1271322,5.50518536 17.0521229,5.43017602 16.9026043,5.43017602 L16.9026043,5.43017602 L16.9026043,5.43017602 L16.9026043,5.43017602 Z M16.0029923,3.78097071 L1.68670999,3.78097071 C1.49918664,3.78097071 1.38667263,3.85598005 1.23665396,3.96849405 C1.12413995,4.08100806 1.04963067,4.23102674 1.04963067,4.38104541 C1.04963067,4.5680687 1.12413995,4.71808737 1.23665396,4.83060138 C1.38667263,4.94311539 1.49918664,5.01762466 1.68670999,5.01762466 L4.94711589,5.01762466 L5.69670921,4.71808737 L11.4679277,4.71808737 L12.217521,4.30603608 L16.0029923,4.30603608 C16.1900156,4.30603608 16.2650249,4.23102674 16.2650249,4.04350339 C16.2650249,3.89348472 16.1900156,3.78097071 16.0029923,3.78097071 L16.0029923,3.78097071 L16.0029923,3.78097071 L16.0029923,3.78097071 Z M14.6163196,2.20727479 L3.2604059,2.20727479 C3.11088729,2.20727479 2.96086861,2.2442794 2.8483546,2.39429808 C2.69833593,2.50681208 2.66083126,2.65683076 2.66083126,2.80684944 C2.66083126,2.95686811 2.69833593,3.10638673 2.8483546,3.21890073 C2.96086861,3.36891941 3.11088729,3.40642408 3.2604059,3.40642408 L5.69670921,3.40642408 L6.44630253,3.1438914 L10.4938064,3.1438914 L11.2433997,2.7318401 L14.6163196,2.7318401 C14.7663383,2.7318401 14.8788523,2.65683076 14.8788523,2.46930741 C14.8788523,2.28228413 14.7663383,2.20727479 14.6163196,2.20727479 L14.6163196,2.20727479 L14.6163196,2.20727479 L14.6163196,2.20727479 Z M12.9671143,10.2647779 L6.33378852,10.2647779 C6.18376984,10.2647779 6.03375117,10.3397872 5.92123716,10.4523012 C5.80922321,10.5643152 5.73421387,10.7143339 5.73421387,10.9018572 C5.73421387,11.0518759 5.80922321,11.2018946 5.92123716,11.3139085 C6.03375117,11.4264225 6.18376984,11.5014319 6.33378852,11.5014319 L9.8567271,11.5014319 L10.868353,10.7893432 L12.9671143,10.7893432 C13.117133,10.7893432 13.229647,10.7143339 13.229647,10.5273106 C13.229647,10.3772919 13.117133,10.2647779 12.9671143,10.2647779 L12.9671143,10.2647779 L12.9671143,10.2647779 L12.9671143,10.2647779 Z M11.3559137,0.670583484 C11.2058951,0.558069476 11.0933811,0.483060138 10.9058577,0.483060138 L6.22127451,0.483060138 C6.03375117,0.483060138 5.88423255,0.558069476 5.77121848,0.670583484 C5.65920454,0.783097491 5.5841952,0.933116167 5.5841952,1.08263478 C5.5841952,1.27015813 5.65920454,1.4201768 5.77121848,1.53269081 C5.88423255,1.64470476 6.03375117,1.71971409 6.22127451,1.71971409 L10.9058577,1.71971409 C11.0933811,1.71971409 11.2058951,1.64470476 11.3559137,1.53269081 C11.4679277,1.4201768 11.542937,1.27015813 11.542937,1.08263478 C11.542937,0.933116167 11.4679277,0.783097491 11.3559137,0.670583484 L11.3559137,0.670583484 Z M11.3559137,0.670583484" id="Fill-1" fill="#FFFFFF" mask="url(#mask-2)"></path>
                </g>
                <path d="M21.8117154,7.19139529 L22.8238414,3.93098938 C22.8988508,3.70646143 23.0488694,3.59344736 23.2358927,3.59344736 C23.4234161,3.59344736 23.6109394,3.70646143 23.6484441,3.96849405 L24.5850607,7.19139529 L21.8117154,7.19139529 L21.8117154,7.19139529 L21.8117154,7.19139529 L21.8117154,7.19139529 Z M25.6346914,2.43180274 C25.559682,2.28228413 25.447168,2.20727479 25.2226401,2.20727479 L22.1867621,2.20727479 C22.1117528,2.20727479 22.0367434,2.2442794 21.9617341,2.31928874 C21.8497202,2.43180274 21.7747108,2.50681208 21.7372062,2.61932609 L19.2633982,10.4523012 L20.8000895,10.4523012 L21.3621595,8.57806792 L24.9601074,8.57806792 L25.4846727,10.4523012 L28.0329899,10.4523012 L25.6346914,2.43180274 L25.6346914,2.43180274 Z M25.6346914,2.43180274" id="Fill-4" fill="#FFFFFF" sketch:type="MSShapeGroup"></path>
                <path d="M34.8913438,9.06562862 L31.6309379,9.06562862 L31.6309379,2.20727479 L29.2326393,2.20727479 L29.2326393,9.59019392 C29.2326393,9.8527266 29.3076486,10.0772546 29.382658,10.1897686 C29.5321766,10.3772919 29.8322139,10.4523012 30.2442652,10.4523012 L34.8913438,10.4523012 L34.8913438,9.06562862" id="Fill-5" fill="#FFFFFF" sketch:type="MSShapeGroup"></path>
                <path d="M41.6751883,9.06562862 L38.4522871,9.06562862 L38.4522871,2.20727479 L36.0534884,2.20727479 L36.0534884,9.59019392 C36.0534884,9.8527266 36.0909931,10.0772546 36.2035071,10.1897686 C36.3535258,10.3772919 36.6530631,10.4523012 37.0651144,10.4523012 L41.6751883,10.4523012 L41.6751883,9.06562862" id="Fill-6" fill="#FFFFFF" sketch:type="MSShapeGroup"></path>
                <path d="M49.4331541,9.06562862 L45.3481456,9.06562862 L45.3481456,6.96686733 L49.4331541,6.96686733 L49.4331541,5.54269003 L45.3481456,5.54269003 L45.3481456,3.59344736 L49.4331541,3.59344736 L49.4331541,2.20727479 L43.8859635,2.20727479 C43.2493843,2.20727479 42.9118423,2.50681208 42.9118423,3.10638673 L42.9118423,9.32766124 C42.9118423,9.7402126 42.9493469,10.0022452 42.9868516,10.1147592 C43.0618609,10.3397872 43.2863889,10.4523012 43.6614356,10.4523012 L49.4331541,10.4523012 L49.4331541,9.06562862" id="Fill-7" fill="#FFFFFF" sketch:type="MSShapeGroup"></path>
                <path d="M56.8160733,7.22889995 C56.7035592,7.11638595 56.6660546,7.04137661 56.6660546,6.96686733 C56.6660546,6.85435333 56.7410639,6.77934399 56.8910826,6.74183932 C57.3031339,6.59182064 57.6031712,6.5168113 57.7156853,6.44180197 C58.0152225,6.32978802 58.2777552,6.17976934 58.4652786,5.992246 C58.8023205,5.61769937 58.9523392,5.16764334 58.9523392,4.53056403 C58.9523392,4.1560174 58.8773299,3.78097071 58.7273112,3.44392875 C58.5772925,3.06888206 58.3152599,2.76934477 57.9402132,2.54431675 C57.5656666,2.31928874 57.1906199,2.20727479 56.7785686,2.20727479 L51.00685,2.20727479 L51.00685,10.4523012 L53.4431533,10.4523012 L53.4431533,3.63145209 L55.3543913,3.63145209 C55.5794193,3.63145209 55.7669426,3.63145209 55.8789566,3.70646143 C56.0664799,3.78097071 56.1789939,3.93098938 56.291508,4.11851273 C56.3665173,4.34304068 56.4410266,4.53056403 56.4410266,4.79309671 C56.4410266,4.98062006 56.4035219,5.20514801 56.3290126,5.39267135 C56.1789939,5.69220865 55.9164613,5.91723666 55.50441,6.02975067 C55.1668679,6.10476001 54.7923213,6.17976934 54.4547793,6.25477868 C54.155242,6.36679263 53.9677187,6.5168113 53.930214,6.74183932 C53.930214,6.77934399 53.8927093,6.85435333 53.8927093,6.89185799 C53.8927093,7.11638595 54.0052233,7.34141396 54.1927467,7.60394665 L56.4785312,10.4523012 L59.3268858,10.4523012 L56.8160733,7.22889995" id="Fill-8" fill="#FFFFFF" sketch:type="MSShapeGroup"></path>
                <path d="M68.8090663,6.89185799 L66.4102677,6.89185799 L66.4102677,8.76559126 C65.9982164,9.10313328 65.5106557,9.25315196 65.0610997,9.25315196 C64.5740391,9.25315196 64.1614877,9.10313328 63.7869411,8.76559126 C63.1873664,8.27853063 62.8498244,7.49143264 62.8498244,6.4798067 C62.8498244,5.95474133 62.9248338,5.46768069 63.1123571,4.94311539 C63.2248711,4.60557337 63.4118944,4.26853141 63.7494364,4.00599872 C64.0489737,3.74346604 64.3865157,3.59344736 64.7610624,3.51893809 L65.1361091,3.51893809 C65.9607117,3.51893809 66.6352957,3.89348472 67.159861,4.64307804 L68.5840383,3.18139606 C68.3215056,2.99387272 68.059473,2.80684944 67.834445,2.65683076 C66.9723376,2.20727479 65.9982164,1.98224678 64.9485857,1.98224678 C63.6744271,1.98224678 62.6252965,2.28228413 61.8381985,2.91886338 C60.8260725,3.74346604 60.3390118,4.83060138 60.3390118,6.25477868 C60.3390118,6.70433465 60.3765165,7.11638595 60.4890305,7.52893731 C60.6385491,8.20352129 60.9760912,8.80309593 61.4631518,9.32766124 C61.9877171,9.88973121 62.5502871,10.2272732 63.1873664,10.4523012 C63.8244458,10.6393245 64.4615251,10.7143339 65.1361091,10.7143339 C66.5602864,10.7143339 67.7969403,10.3397872 68.8090663,9.62769859 L68.8090663,6.89185799" id="Fill-9" fill="#FFFFFF" sketch:type="MSShapeGroup"></path>
                <path d="M72.8190655,7.19139529 L73.8681961,3.93098938 C73.9432055,3.70646143 74.0932242,3.59344736 74.2432428,3.59344736 C74.4682708,3.59344736 74.6177895,3.70646143 74.6927988,3.96849405 L75.6299155,7.19139529 L72.8190655,7.19139529 L72.8190655,7.19139529 L72.8190655,7.19139529 L72.8190655,7.19139529 Z M76.6790461,2.43180274 C76.6040367,2.28228413 76.4920228,2.20727479 76.2669948,2.20727479 L73.2311168,2.20727479 C73.1561075,2.20727479 73.0810982,2.2442794 72.9690842,2.31928874 C72.8940749,2.43180274 72.8190655,2.50681208 72.7815609,2.61932609 L70.3077529,10.4523012 L71.8444442,10.4523012 L72.4065142,8.57806792 L76.0044621,8.57806792 L76.5290274,10.4523012 L79.0778447,10.4523012 L76.6790461,2.43180274 L76.6790461,2.43180274 Z M76.6790461,2.43180274" id="Fill-10" fill="#FFFFFF" sketch:type="MSShapeGroup"></path>
                <path d="M87.8849411,2.20727479 L86.3857545,2.20727479 L86.3857545,8.50355864 L83.8374373,2.61932609 C83.7249232,2.35679341 83.5373999,2.20727479 83.2378626,2.20727479 L80.839064,2.20727479 C80.389508,2.20727479 80.2019847,2.43180274 80.2019847,2.8443541 L80.2019847,10.4523012 L81.7761806,10.4523012 L81.7761806,3.93098938 L84.3995072,9.92773594 C84.5495259,10.2647779 84.7740539,10.4523012 85.0365865,10.4523012 L87.3228712,10.4523012 C87.6974178,10.4523012 87.8849411,10.2647779 87.8849411,9.81472187 L87.8849411,2.20727479" id="Fill-11" fill="#FFFFFF" sketch:type="MSShapeGroup"></path>
            </g>
        </g>
    </g>
</svg>