<?xml version="1.0" encoding="UTF-8" standalone="no"?>
<svg width="74px" height="35px" viewBox="0 0 74 35" version="1.1" xmlns="http://www.w3.org/2000/svg" xmlns:xlink="http://www.w3.org/1999/xlink" xmlns:sketch="http://www.bohemiancoding.com/sketch/ns">
    <title>juvederm</title>
    <description>Created with Sketch (http://www.bohemiancoding.com/sketch)</description>
    <defs>
        <path id="path-1" d="M0,0.0985875915 L71.7653257,0.0985875915 L71.7653257,17.9660043 L0,17.9660043 L0,17.9660043 L0,0.0985875915 L0,0.0985875915 Z M0,0.0985875915"></path>
        <mask id="mask-2" sketch:name="Clip 2" fill="white">
            <use xlink:href="#path-1"></use>
        </mask>
    </defs>
    <g id="Page-1" stroke="none" stroke-width="1" fill="none" fill-rule="evenodd" sketch:type="MSPage">
        <g id="Artboard-1" sketch:type="MSArtboardGroup" transform="translate(-262.000000, -25.000000)">
            <g id="logo_juvederm_gel" sketch:type="MSLayerGroup" transform="translate(263.032746, 34.004233)">
                <g id="Group-6" sketch:type="MSShapeGroup">
                    <use id="Clip-2" xlink:href="#path-1"></use>
                    <path d="M70.8236012,9.27357063 C70.959276,9.27357063 71.0766669,9.26100045 71.0766669,9.11078164 C71.0766669,8.98559929 70.9467058,8.96554934 70.8390802,8.96554934 L70.630997,8.96554934 L70.630997,9.27357063 L70.8236012,9.27357063 L70.8236012,9.27357063 L70.8236012,9.27357063 L70.8236012,9.27357063 Z M70.7989803,9.42378945 L70.630997,9.42378945 L70.630997,9.88711996 L70.4506513,9.88711996 L70.4506513,8.81533052 L70.8688954,8.81533052 C71.1343235,8.81533052 71.2721799,8.90539948 71.2721799,9.12335181 C71.2721799,9.31865705 71.1468937,9.39885686 70.9816115,9.41630967 L71.2895289,9.88711996 L71.0794719,9.88711996 L70.7989803,9.42378945 L70.7989803,9.42378945 L70.7989803,9.42378945 L70.7989803,9.42378945 Z M70.8264061,8.60724733 C70.418239,8.60724733 70.0977514,8.92544943 70.0977514,9.3511733 C70.0977514,9.77700105 70.418239,10.0949954 70.8264061,10.0949954 C71.229379,10.0949954 71.5551648,9.77700105 71.5551648,9.3511733 C71.5551648,8.92544943 71.229379,8.60724733 70.8264061,8.60724733 L70.8264061,8.60724733 L70.8264061,8.60724733 L70.8264061,8.60724733 Z M70.8264061,8.41204598 C71.322149,8.41204598 71.7653257,8.79019016 71.7653257,9.3511733 C71.7653257,9.91205255 71.322149,10.2901967 70.8264061,10.2901967 C70.3304555,10.2901967 69.887071,9.91205255 69.887071,9.3511733 C69.887071,8.79019016 70.3304555,8.41204598 70.8264061,8.41204598 L70.8264061,8.41204598 Z M70.8264061,8.41204598" id="Fill-1" fill="#FFFFFF" mask="url(#mask-2)"></path>
                    <path d="M10.2330596,17.8024881 C5.77012707,18.1947607 4.15002856,13.2854311 5.850223,8.44425056 C6.73501806,5.92813732 5.34377989,3.78902553 2.51995701,4.84949142 C-3.074707,6.94808777 1.14991154,19.5741559 10.2330596,17.8024881" id="Fill-3" fill="#FFFFFF" mask="url(#mask-2)"></path>
                    <path d="M0.275608936,5.75018101 C2.16840758,1.67744346 7.22099568,2.72762466 10.5559365,6.62614578 C12.2883355,8.65222987 14.831563,8.51447734 15.3266825,5.53399473 C16.3101691,-0.376482014 3.28663396,-3.02286801 0.275608936,5.75018101" id="Fill-4" fill="#FFFFFF" mask="url(#mask-2)"></path>
                    <path d="M14.3545195,12.4961071 C14.3545195,12.1087171 14.5546035,11.9984943 14.6982775,11.9984943 C14.826992,11.9984943 15.7872081,12.2653768 15.7872081,12.4821864 C15.7872081,12.5800468 15.6243152,12.7976875 15.6243152,13.2102178 C15.6243152,13.495592 15.7476277,13.7097006 15.9368036,13.8697886 C18.008078,10.9741806 18.7423426,6.67320603 15.6714794,3.13371412 C18.2407821,6.81345182 14.8090198,10.672808 9.77315728,11.6178568 C7.15575541,12.1097559 6.00470113,14.3845425 8.33319668,16.3058059 C10.5026431,18.0969004 13.5997894,16.8342728 15.6384437,14.2664244 C14.8959721,13.9167449 14.3545195,13.325531 14.3545195,12.4961071" id="Fill-5" fill="#FFFFFF" mask="url(#mask-2)"></path>
                </g>
                <path d="M21.3576668,4.86019165 C21.1948778,4.86019165 20.649893,5.00552784 20.5234641,5.17475775 C20.4332912,5.3079393 20.4501207,5.70779561 19.3625406,12.5202086 C19.1622489,13.8163913 18.6543514,14.2770208 17.3666873,14.2770208 C16.8919294,14.2770208 16.2943784,14.1720961 15.9368036,13.8697886 C15.8399821,14.0049439 15.7408751,14.1376061 15.6384437,14.2664244 C16.1653523,14.5146075 16.7927185,14.6418676 17.4028396,14.6418676 C19.8340781,14.6418676 20.4332912,13.0648816 20.705368,11.1500592 C20.8491459,10.1315632 21.5578546,5.1868085 21.5578546,5.0773129 C21.5578546,4.8956167 21.4672662,4.86019165 21.3576668,4.86019165" id="Fill-7" fill="#FFFFFF" sketch:type="MSShapeGroup"></path>
                <path d="M27.3102172,8.73866282 C27.3817945,8.53130684 27.5636985,8.42274621 27.9618926,8.42274621 C28.0723232,8.42274621 28.234385,8.43396587 28.234385,8.61607762 C28.234385,8.73866282 27.871512,10.3367376 27.8181147,10.8469205 C27.7457064,11.5736015 27.6180308,12.0950041 27.6180308,12.2761809 C27.6180308,12.4456186 27.6540791,12.6038366 28.0723232,12.6292886 C28.5973619,12.6522474 28.6516941,12.6522474 28.6516941,12.7375376 C28.6516941,12.8715502 27.9446476,13.0415073 27.3102172,13.0415073 C26.7291842,13.0415073 26.5659796,12.8348786 26.5659796,12.4702395 C26.5659796,12.2282896 26.638388,11.5488767 26.6931358,11.197535 L26.6569835,11.1736413 C25.6396302,12.4456186 24.6052397,13.0415073 23.6276746,13.0415073 C22.7188819,13.0415073 22.5008257,12.6167185 22.5008257,12.1199367 C22.5008257,11.7923849 22.5379129,11.6586839 22.7919136,10.3367376 C23.0636788,8.90685388 23.2085994,8.61607762 23.2820467,8.55530445 C23.3906073,8.47115698 23.8076048,8.3505456 23.9897165,8.3505456 C24.1344294,8.3505456 24.1878267,8.43396587 24.1878267,8.507517 C24.1878267,8.7862425 23.9345532,9.62169183 23.8257848,10.2395005 C23.6440886,11.2831369 23.553708,11.8904531 23.553708,12.0828495 C23.553708,12.3365385 23.8076048,12.5059762 24.1707894,12.5059762 C25.4947096,12.5059762 26.638388,10.6152553 26.9288526,9.79258391 L27.3102172,8.73866282" id="Fill-8" fill="#FFFFFF" sketch:type="MSShapeGroup"></path>
                <path d="M31.9187976,12.6292886 C31.6643813,12.9921616 31.5551974,13.0415073 31.4102767,13.0415073 C31.2471761,13.0415073 31.1015283,12.7745209 30.883472,12.0470089 C30.3033739,10.0587392 29.8136564,9.05312504 29.8136564,8.61607762 C29.8136564,8.507517 29.8488737,8.38597065 30.0125977,8.38597065 C30.1042249,8.38597065 30.5757624,8.53130684 30.7747036,8.65222987 C30.9023792,8.7256771 30.9205592,8.79735828 30.9920327,9.04055486 C31.7549697,11.6104809 31.791122,11.7923849 31.9360426,11.7923849 C32.008451,11.7923849 32.0807555,11.7438702 32.9526687,10.4341824 C34.1317721,8.66500782 34.1678205,8.33776765 34.3670734,8.33776765 C34.4953723,8.33776765 34.658473,8.53130684 34.658473,8.60516962 C34.658473,8.71352247 34.5317323,8.89469924 31.9187976,12.6292886" id="Fill-9" fill="#FFFFFF" sketch:type="MSShapeGroup"></path>
                <path d="M36.2729617,11.5736015 C36.2549894,11.3418323 36.3272939,11.3197047 36.9988115,11.1014407 C38.2513622,10.7006494 40.0652076,9.97355292 40.0652076,9.10163969 C40.0652076,8.65222987 39.6842585,8.38597065 38.9404365,8.38597065 C37.8344686,8.38597065 35.8375764,9.17435972 35.3107717,10.9554812 C35.2015878,11.3197047 34.7306736,11.1624216 34.7306736,11.3790234 C34.7306736,11.5736015 35.1661627,11.4284731 35.1851738,11.7078219 C35.2376361,12.5918898 35.946137,13.0415073 37.1435244,13.0415073 C37.8152497,13.0415073 38.7039925,12.8830816 39.3032056,12.6292886 C39.7567708,12.4341912 39.9024186,12.3736258 39.9024186,12.2761809 C39.9024186,12.1917218 39.8650198,12.1565045 39.7567708,12.1565045 C39.6476908,12.1565045 38.7774397,12.5795273 37.6514219,12.5795273 C37.1435244,12.5795273 36.3272939,12.3736258 36.2729617,11.5736015 C36.2729617,11.5736015 36.3272939,12.3736258 36.2729617,11.5736015 L36.2729617,11.5736015 L36.2729617,11.5736015 Z M39.974827,5.79298194 C39.8650198,5.79298194 39.7567708,5.79298194 39.6476908,5.88897239 L37.5616646,7.64651177 C37.5256162,7.68287179 37.506709,7.72016678 37.506709,7.73180198 C37.506709,7.76764257 37.5428613,7.79184796 37.6152696,7.79184796 L37.9417826,7.79184796 C38.0695621,7.79184796 38.1599427,7.77979721 38.2513622,7.70707717 L40.7548014,5.91348943 C40.7910575,5.88897239 40.8092375,5.86518255 40.8092375,5.85292403 C40.8092375,5.81635624 40.7548014,5.79298194 40.6824969,5.79298194 L39.974827,5.79298194 L39.974827,5.79298194 L39.974827,5.79298194 L39.974827,5.79298194 Z M39.1575577,9.17435972 C39.1575577,10.1559763 36.7626792,10.8469205 36.5091979,10.8469205 C36.4359584,10.8469205 36.3999101,10.8097294 36.3999101,10.7617342 C36.3999101,10.3612546 37.4159129,8.67664302 38.5954318,8.67664302 C38.9944571,8.67664302 39.1575577,8.94362944 39.1575577,9.17435972 L39.1575577,9.17435972 Z M39.1575577,9.17435972" id="Fill-10" fill="#FFFFFF" sketch:type="MSShapeGroup"></path>
                <path d="M46.9243692,12.1917218 C46.9243692,11.2713978 48.3209055,4.70083089 48.3209055,4.54427504 C48.3209055,4.43477944 48.2660539,4.38595313 48.1402482,4.38595313 C47.5057139,4.38595313 47.4687306,4.49534485 47.2140027,5.52464501 C46.8170552,7.17403931 46.6341124,8.178303 46.5245129,8.32582079 C46.4334051,8.45837903 45.5452857,8.42274621 44.5108951,8.64121798 C42.3515256,9.10163969 41.1168432,10.9554812 41.1168432,11.9137235 C41.1168432,12.458916 41.5882769,13.0415073 42.7315397,13.0415073 C44.2384027,13.0415073 45.1823088,12.0100256 46.0331332,10.8702948 L46.0711554,10.895643 C45.9988509,11.4045793 45.8720064,12.203357 45.8720064,12.3614711 C45.8720064,12.7375376 46.0892315,13.0415073 46.7615802,13.0415073 C47.3778306,13.0415073 48.2660539,12.7976875 48.2660539,12.6396772 C48.2660539,12.6038366 48.2305249,12.5441023 48.1582204,12.5441023 C48.0669048,12.5441023 47.6866829,12.5918898 47.4500312,12.5918898 C47.0150615,12.5918898 46.9243692,12.458916 46.9243692,12.1917218 C46.9243692,12.1917218 46.9243692,12.458916 46.9243692,12.1917218 L46.9243692,12.1917218 L46.9243692,12.1917218 Z M42.1694138,11.5973913 C42.1694138,10.7861474 42.6950758,9.99806996 43.2953278,9.52570138 C43.8222364,9.10163969 44.4011917,8.94362944 45.6184212,8.94362944 C46.1987271,8.94362944 46.3970451,8.94362944 46.3970451,9.21020031 C46.3970451,9.69378855 44.7107713,12.5558414 43.1133199,12.5558414 C42.4961346,12.5558414 42.1694138,12.1439343 42.1694138,11.5973913 L42.1694138,11.5973913 Z M42.1694138,11.5973913" id="Fill-11" fill="#FFFFFF" sketch:type="MSShapeGroup"></path>
                <path d="M52.6940807,8.67664302 C51.5139384,8.67664302 50.4979356,10.3612546 50.4979356,10.7617342 C50.4979356,10.8097294 50.5356462,10.8469205 50.6080546,10.8469205 C50.8611203,10.8469205 53.2565183,10.1559763 53.2565183,9.17435972 C53.2565183,8.94362944 53.0924826,8.67664302 52.6940807,8.67664302 L52.6940807,8.67664302 L52.6940807,8.67664302 L52.6940807,8.67664302 Z M51.7501747,12.5795273 C52.8753614,12.5795273 53.7457163,12.1565045 53.8566663,12.1565045 C53.9647075,12.1565045 54.0001326,12.1917218 54.0001326,12.2761809 C54.0001326,12.3736258 53.8566663,12.4341912 53.4011272,12.6292886 C52.803888,12.8830816 51.9134831,13.0415073 51.2427966,13.0415073 C50.0446821,13.0415073 49.3365967,12.5918898 49.2821605,11.7078219 C49.2651233,11.4284731 48.8278681,11.5736015 48.8278681,11.3790234 C48.8278681,11.1624216 49.3004444,11.3197047 49.4090051,10.9554812 C49.935602,9.17435972 51.9320786,8.38597065 53.0391892,8.38597065 C53.7832191,8.38597065 54.1639604,8.65222987 54.1639604,9.10163969 C54.1639604,9.97355292 52.3488683,10.7006494 51.0968371,11.1014407 C50.4263584,11.3197047 50.3518723,11.3418323 50.3709872,11.5736015 C50.4263584,12.3736258 51.2427966,12.5795273 51.7501747,12.5795273 L51.7501747,12.5795273 Z M51.7501747,12.5795273" id="Fill-12" fill="#FFFFFF" sketch:type="MSShapeGroup"></path>
                <path d="M57.6845451,9.2351329 C57.0129237,9.28385532 56.9949514,9.37974188 56.8682108,10.167196 C56.5415939,12.1797749 56.4872617,12.6038366 56.4148533,12.7120856 C56.2149771,12.9921616 55.7608924,13.0289372 55.6518124,13.0289372 C55.4706356,13.0289372 55.4526633,12.9430236 55.4526633,12.8218928 C55.4526633,12.5558414 55.6518124,11.6821621 55.9605609,9.96170994 C56.0339042,9.54886791 56.1615798,8.7862425 56.2149771,8.7256771 C56.3053577,8.61607762 56.8314352,8.47115698 56.9216081,8.47115698 C57.085332,8.47115698 57.104447,8.55530445 57.104447,8.60516962 L57.104447,8.99162466 C57.104447,9.00325987 57.104447,9.04055486 57.1577404,9.04055486 C57.1944121,9.04055486 57.6845451,8.77429564 57.7923786,8.73866282 C58.2825116,8.55530445 59.1175454,8.44674382 59.3725849,8.44674382 C59.6267934,8.44674382 59.6442462,8.54366924 59.6442462,8.61607762 C59.6442462,9.0643447 59.4813533,9.0767071 59.0819126,9.11379432 L57.6845451,9.2351329" id="Fill-13" fill="#FFFFFF" sketch:type="MSShapeGroup"></path>
                <path d="M64.687069,9.27076571 C64.687069,9.10163969 64.6700318,8.87028609 64.3795672,8.87028609 C63.5629212,8.87028609 61.6747974,10.7253742 61.221336,12.3491087 C61.1680426,12.5441023 61.0405748,13.0150165 60.4051056,13.0150165 C60.1700121,13.0150165 60.1700121,12.8715502 60.1700121,12.8097382 C60.1700121,12.6292886 60.2234094,12.2157194 60.9318064,8.80972069 C60.9861386,8.54366924 61.5130472,8.38597065 61.7492835,8.38597065 C61.8769591,8.38597065 61.9476014,8.44674382 61.9476014,8.5191522 C61.9476014,8.64121798 61.8390408,9.02798468 61.5864945,10.6413306 L61.6216079,10.6652243 C62.728199,9.3066063 63.7991574,8.38597065 64.960808,8.38597065 C65.5946151,8.38597065 65.739328,8.71352247 65.739328,9.0643447 C65.739328,9.25861108 65.6125873,9.66999871 65.4500061,10.4576606 L65.4854312,10.470958 C66.701414,8.82343361 67.6457356,8.38597065 68.2993849,8.38597065 C68.8796908,8.38597065 69.2229293,8.65222987 69.2229293,9.08927728 C69.2229293,9.50159989 69.0611792,10.0351572 68.8796908,10.8097294 C68.661219,11.7438702 68.5706306,12.1439343 68.5706306,12.3491087 C68.5706306,12.4821864 68.5706306,12.6292886 69.333256,12.6292886 C69.5681417,12.6292886 69.6963368,12.6396772 69.6963368,12.7375376 C69.6963368,12.8947168 69.0423759,13.0415073 68.46207,13.0415073 C67.7182479,13.0415073 67.4454439,12.8348786 67.4454439,12.458916 C67.4454439,12.1797749 67.6806413,11.4284731 67.8630647,10.6529658 C68.0445531,9.86571949 68.1725404,9.47718673 68.1725404,9.21020031 C68.1725404,9.01676502 68.0820559,8.88264849 67.8630647,8.88264849 C67.1005431,8.88264849 65.3050855,10.895643 65.0509809,11.9859241 C64.9059564,12.5672688 64.743479,12.9793837 64.1980787,12.9793837 C64.0713381,12.9793837 63.944078,12.8947168 63.944078,12.7004504 C63.944078,12.3736258 64.687069,9.88909379 64.687069,9.27076571" id="Fill-14" fill="#FFFFFF" sketch:type="MSShapeGroup"></path>
            </g>
        </g>
    </g>
</svg>