<?xml version="1.0" encoding="UTF-8" standalone="no"?>
<svg width="76px" height="35px" viewBox="0 0 76 35" version="1.1" xmlns="http://www.w3.org/2000/svg" xmlns:xlink="http://www.w3.org/1999/xlink" xmlns:sketch="http://www.bohemiancoding.com/sketch/ns">
    <title>restylane</title>
    <description>Created with Sketch (http://www.bohemiancoding.com/sketch)</description>
    <defs></defs>
    <g id="Page-1" stroke="none" stroke-width="1" fill="none" fill-rule="evenodd" sketch:type="MSPage">
        <g id="Artboard-1" sketch:type="MSArtboardGroup" transform="translate(-79.000000, -25.000000)" fill="#FFFFFF">
            <g id="Restylane_144451" sketch:type="MSLayerGroup" transform="translate(78.834912, 30.003735)">
                <path d="M53.1156126,3.30791181 C52.2830089,3.69846044 52.331515,4.66958133 51.801949,5.28865841 C51.7519428,5.53718935 51.4529056,5.73571406 51.4604065,6.00074706 C51.3413917,6.07075577 51.4864097,6.1472653 51.4394039,6.26427986 C51.0618569,6.66582986 50.9448423,7.25190282 50.6098006,7.69895847 C50.4437799,7.87097989 50.556294,8.09450772 50.4047751,8.23752552 C50.3837725,8.50155839 50.1317411,8.58306854 50.0967367,8.84710141 C49.8712087,9.01762264 49.9962242,9.34466335 49.7416925,9.49918259 C49.7951992,9.7362121 49.5441679,9.75921496 49.4666583,9.93273657 C49.3291412,10.1502636 49.2491312,10.3837927 49.126616,10.586818 C49.1736218,11.0728785 48.6955623,11.3544136 48.7290665,11.7959685 C48.428029,12.0535006 48.4800355,12.3635392 48.3090142,12.683079 C48.1319921,12.7510874 48.3175152,12.9911173 48.138993,13.061126 C48.2150025,13.5331848 47.8119523,13.7862163 47.7714473,14.2122693 C47.504414,14.5083062 47.4814111,14.4092939 47.3708974,14.9143567 C47.359896,15.1203824 47.3153905,15.3519112 47.1678721,15.4659254 L46.9813489,16.1090055 C46.7943256,16.1885154 46.9628466,16.3730383 46.8843368,16.5260574 C46.7368185,16.522557 46.8023266,16.7080801 46.7203164,16.7725881 C46.596801,17.2751507 46.6503077,17.6666994 46.2652597,18.017243 C46.3422693,18.3377829 46.4077775,18.7613357 46.1397441,18.9943647 C46.1492453,19.157885 46.3147659,19.2533969 46.4742858,19.2733994 C47.3468944,19.1773875 48.0204783,18.5373078 48.7000629,18.0907522 C49.8767093,17.3381585 51.0498554,16.3905405 52.0794836,15.5154316 C52.4585308,15.325908 52.7460666,15.0518739 53.1126122,14.8463483 C53.1126122,14.7283336 53.2771327,14.7193325 53.3591429,14.6558246 C53.4391529,14.4888038 53.6551797,14.4272961 53.8036982,14.3122818 L53.8397027,14.3762898 C54.1037356,14.2767774 54.3867708,14.1502616 54.5912963,13.9392354 C55.1163617,13.8872289 55.8634547,13.7157075 56.1684926,14.3472862 C56.2264999,14.3557872 56.268005,14.3747896 56.292008,14.4227956 C56.2880075,14.6893287 55.9809693,14.7688386 55.7804443,14.8313464 C54.9953466,14.8353469 54.3707688,15.318407 53.9122117,15.8969791 C53.8091989,15.8839775 53.7256885,15.9614871 53.6286764,16.0234948 C53.4986603,16.4660499 52.9005858,16.62757 52.7545676,17.0676248 C52.5215386,17.2751507 52.468032,17.5786884 52.1929977,17.7652117 C52.1479921,17.9977406 51.7264396,18.1657615 51.9914726,18.4067915 C52.4570306,18.2442713 53.0401032,18.1997658 53.3351399,17.7487096 C53.6746822,17.6441966 54.026726,17.4366708 54.1857458,17.1166309 C54.4697812,16.7530857 54.918337,16.4835521 55.0773568,16.0454976 C55.488408,15.9644875 55.9139609,15.6489482 56.3665173,15.9274829 C56.2244996,16.2365213 57.1471145,16.3085303 56.4800314,16.3130309 C56.3370136,16.7390839 55.761442,16.9626117 55.7434397,17.4486723 C55.5759189,17.7227064 55.3958965,17.9672368 55.392396,18.3372829 C55.3018847,18.3547851 55.3343888,18.4487968 55.3123861,18.5048037 C55.448403,18.7143298 55.6784316,18.6553225 55.8839572,18.6663238 C56.5040344,18.4492968 57.022599,18.1002534 57.641176,17.8982282 C58.0722296,17.5381834 58.6748047,17.230145 59.0998576,16.9136056 C59.4539017,16.6920781 59.8649528,16.4920532 60.2049952,16.1515108 C60.4965315,16.0705007 60.629548,15.7169567 60.9600892,15.6839526 C61.0901053,15.5974418 61.1636145,15.3694134 61.3646395,15.4099184 C62.1822413,14.69983 63.1508619,14.1867662 64.0484736,13.6486992 C64.0934792,13.2986556 64.4830277,13.3781655 64.7255579,13.3351601 C64.9415848,13.3771654 65.1536112,13.4641762 65.2431224,13.6982053 C65.1326086,13.9797404 64.9895908,14.1687639 64.8975794,14.4242957 C64.7915662,14.6773272 64.5505362,14.9418602 64.6625501,15.2228952 C64.4075183,15.3684133 64.4170195,15.7549614 64.1684886,15.960487 C64.1899913,16.1405094 63.8624505,16.1585116 63.9839656,16.3665375 C63.7174324,16.4800517 63.77844,16.8140933 63.5044059,16.9866147 L63.5559123,17.0526229 C64.1039806,16.8110929 64.5180321,16.241522 65.0510985,16.0134936 C65.4211445,15.6609497 65.9542109,15.4319212 66.3652621,15.1148817 C66.7028041,15.0243704 67.0728502,14.9093561 67.3753878,14.739835 C67.5814135,14.7513365 67.7729373,14.6423229 67.9904644,14.6848282 L68.2609981,15.1193823 C68.2379952,15.5314336 67.7854389,15.7104559 67.8724497,16.1955162 C67.4323949,16.3905405 67.7804383,16.9101052 67.3548853,17.1071297 C67.2713749,17.3041543 67.1953654,17.5466845 67.2313699,17.7282071 C67.0108424,17.8332201 67.1448591,18.1762628 66.902829,18.2192682 C66.7118052,18.4322947 67.039346,18.7708369 66.7093049,18.9208555 C66.557786,19.3009028 67.0618488,19.173887 67.1168556,19.446921 C67.0863518,19.67945 66.9983409,19.7874634 66.7598112,19.9199799 C66.6352957,20.0815 66.3097552,19.9659856 66.1567361,19.8864757 C65.7931909,19.4854258 65.5321584,18.9783627 65.7791891,18.4312946 C65.8727008,18.161761 65.8326958,17.8907273 66.0347209,17.7087046 C66.0322206,17.2641493 66.3657621,17.085127 66.3457596,16.667575 C66.5512852,16.3235322 66.798816,15.8949788 66.8523227,15.4729263 C66.918831,15.4219199 66.9738378,15.3404098 66.9073296,15.2724013 C66.5982911,15.1443854 66.3947657,15.4599247 66.1732382,15.5789395 C65.6086679,15.936484 65.0671005,16.4595491 64.4815276,16.8741007 C64.5760393,17.0641244 64.2605,17.0976286 64.252499,17.2751507 C64.0389725,17.6772007 63.4338971,17.7777132 63.4558999,18.2992781 C63.3098817,18.3987905 63.4513993,18.683326 63.2358725,18.7448336 C63.1963676,18.827844 63.2448736,18.908854 63.3133821,18.9478589 L63.3868913,18.95636 C62.9968427,19.1138796 62.4892795,19.2568974 62.1167332,18.9283565 C61.938711,18.6978278 61.9607137,18.2857765 62.0632265,18.0622486 C62.2422488,17.8327201 62.1692397,17.5861894 62.4422737,17.414668 C62.4652765,17.2391462 62.6733024,17.1166309 62.5827912,16.8981037 C62.6953052,16.6020669 62.9738399,16.38654 62.9878416,16.0464977 C63.3168826,15.6744514 63.6424231,15.2123939 63.561413,14.6828279 C63.5059061,14.6458233 63.4689015,14.5973173 63.3938922,14.602818 C63.0193455,14.8663508 62.5272843,15.0108688 62.2382483,15.4184195 C61.7711901,15.5944414 61.3731406,15.9294831 61.0591015,16.3040298 C60.8085703,16.5240571 60.4330235,16.5650622 60.2755039,16.8711003 C59.9194596,17.1066297 59.4689035,17.2716502 59.1588649,17.6166932 C58.8168223,17.8557229 58.4997829,18.0227437 58.1027334,18.2227686 C57.9082092,18.4803007 57.5896696,18.6473215 57.3131351,18.7303318 C57.1551155,19.0358699 56.7880698,18.8998529 56.5565409,19.093377 C56.0844822,19.4174174 55.5214121,19.4199177 54.9838452,19.454422 C54.7688184,19.1608854 54.6868082,18.7653362 54.5177871,18.4622984 C54.4237754,18.2727748 54.7223126,17.791715 54.3627678,17.8212186 C53.8006979,18.1637613 53.1886217,18.7818382 52.5755453,19.0593728 C52.2955105,19.2753997 51.9279647,19.3759122 51.5594188,19.3594101 C51.3533932,19.1108792 51.1503679,18.9663612 51.151368,18.6108169 C50.9163388,18.3582855 51.2778838,18.1977655 51.2583814,17.8842265 C51.4494051,17.6712 51.4519055,17.301654 51.745442,17.2051419 C51.7424416,16.9976161 51.9724703,16.9376086 52.05098,16.7845896 C52.3325151,16.3175314 52.7670692,15.9274829 53.087109,15.510431 C52.1734953,15.8234699 51.5914228,16.7855897 50.7833222,17.3201563 C50.3587694,17.7402085 49.729691,17.9112298 49.3551444,18.4112921 C48.7395678,18.7028284 48.3920245,19.221893 47.7324424,19.4044157 C47.2668844,19.8039655 46.6153033,20.0314938 45.994226,19.9084785 C45.6661852,19.807966 45.5656726,19.5569347 45.4676604,19.2789001 C45.4266553,18.6658238 45.4576592,18.0772505 45.7897005,17.5566857 C45.8507081,17.3121553 45.6631848,16.9191063 45.9887253,16.812093 C46.0257299,16.6390715 45.9887253,16.3525358 46.2237546,16.249523 C46.2572587,15.9874903 46.3707729,15.6764516 46.5337932,15.4449228 C46.6338056,14.7758395 46.9328429,14.2792777 47.0653594,13.6657013 C47.455908,13.3376605 47.2038766,12.8315975 47.6239289,12.5190585 C47.6759354,12.1810165 47.9614709,11.9389863 47.9409684,11.5709405 C48.3505193,11.052376 48.5155399,10.3657905 48.83758,9.7852182 C49.1956246,9.00112058 49.6706837,8.23402509 49.9697209,7.46192896 C50.2502559,6.79334573 50.7638198,6.26227962 50.8413294,5.52918835 C50.9828471,5.13613942 51.3573937,4.86660586 51.2663824,4.37904516 C51.6229267,4.21102425 51.4449046,3.7214633 51.7724454,3.53894058 C51.6904351,3.2869092 52.0179759,3.11888828 52.1249892,2.94486662 C52.4060242,2.87785828 52.7125624,2.97437029 52.9765953,2.99537291 C53.0926097,3.07138237 53.1036111,3.20489899 53.1156126,3.30791181" id="Fill-1" sketch:type="MSShapeGroup"></path>
                <path d="M39.4884161,8.96461604 L39.5289211,9.10413341 C39.1633756,9.17164181 39.1518742,9.57069149 38.9303466,9.77771727 C38.8743396,10.0652531 38.6508118,10.2872807 38.7658261,10.5258104 C38.5688016,10.6618273 38.5743023,10.8393494 38.5032934,11.0228723 C38.2727647,11.1838923 38.4882916,11.5549385 38.299268,11.7359611 C38.3912795,11.927985 38.186254,11.9134832 38.1232461,12.0379987 C38.1472491,12.2935305 37.969727,12.506557 37.8497121,12.7265844 C37.8717148,12.996618 37.5226713,13.1556378 37.5546753,13.4571753 C37.6251841,13.6892042 37.2056319,13.7202081 37.4226589,13.9717394 L37.6021812,14.072752 C38.7983302,14.0017431 39.9469732,13.6431985 41.1961287,13.936735 C41.1306205,14.0912543 41.2801391,14.1867662 41.3406467,14.2837782 C40.8780891,14.5153071 40.7780766,15.0203699 40.6420597,15.4614249 C40.6710633,15.6734512 40.4785393,15.8849776 40.3905284,16.0940036 C40.2655128,16.3440347 40.1650003,16.7450847 39.8939666,16.989115 C39.8824651,17.2836517 39.4669134,17.3891648 39.6024303,17.6902023 C39.4749144,17.7612112 39.5104188,17.9297321 39.3949044,18.017243 C39.4564121,18.1002534 39.4179073,18.2727748 39.575927,18.3097795 C39.9829776,18.3657864 40.2125062,17.8942277 40.524045,17.7892146 C41.0546111,17.3891648 41.3921531,16.9911153 41.9247194,16.5760636 C42.3012663,16.0049925 42.9203433,15.7209572 43.2693868,15.1318838 C43.6779376,14.8628503 44.235007,14.8073434 44.7385697,15.0268708 C44.9675982,15.2954042 44.4090287,15.366413 44.3995275,15.6459478 C44.2500089,15.8624748 43.9314692,16.0259951 43.9629731,16.3270326 C43.8679613,16.3730383 43.8779625,16.5085552 43.8964648,16.5850647 C43.4989154,16.8856022 43.4424083,17.5001787 43.3939023,17.9532351 C43.2108795,18.0917523 43.4549099,18.2592732 43.2038786,18.3572854 C43.1758751,18.6648237 42.8833387,18.8463463 42.9008409,19.1453835 C42.9203433,19.430419 42.5112924,19.4914266 42.5367956,19.8369696 C42.4507849,20.1370069 42.2412588,20.3590346 42.211255,20.6815747 C42.0142305,20.7125786 42.1997536,20.8725985 42.0847393,20.9461077 C42.0272321,21.1456325 41.8552107,21.2101405 41.7161934,21.3536584 L41.7411965,21.9212291 C41.4186564,22.0982511 41.4806641,22.5078021 41.2276326,22.7248291 C41.3621493,23.2478942 40.8570865,23.5774352 40.7160689,24.0474938 C40.7925784,24.459045 40.2615123,24.7550819 40.4450352,25.2411424 C40.3480231,25.4056629 40.5270454,25.6096883 40.2700134,25.7507058 C40.1164943,26.42679 39.8444604,27.101374 39.849461,27.7994609 C39.6624377,28.1880092 39.9839778,28.7525795 39.5484235,29.0026106 C39.399905,28.99711 39.2693888,28.9786077 39.1993801,28.8495916 C39.0353597,28.322526 39.2728892,27.7914599 39.3278961,27.2958982 C39.4549119,27.0163634 39.3293963,26.7463298 39.5724265,26.4987989 C39.7639504,26.0802468 39.5529241,25.5766841 39.8869657,25.2071381 C39.8834652,24.7030754 40.1289958,24.322528 40.3125187,23.8574701 C40.3365217,23.3714096 40.64456,22.8658467 40.7155688,22.3567833 C41.0511106,21.8687225 41.1191191,21.1666351 41.4106554,20.6740738 C41.2886402,20.1665106 41.7641994,19.9509838 41.7837018,19.4939269 C41.9052169,19.0508717 42.122744,18.6658238 42.1747505,18.1832637 C42.5337952,18.0557478 42.2497598,17.6451967 42.5682995,17.4966782 C42.5607986,17.3336579 42.6963154,17.2181436 42.5202935,17.0896276 C41.8562108,17.1746381 41.5456722,17.7992159 41.0026046,18.1822636 C40.8560863,18.3847888 40.6485605,18.5933148 40.395529,18.7063288 C40.1369968,18.9668613 39.7739516,19.0198679 39.455412,19.1683863 L38.7693265,18.8793504 C38.3762776,18.1867641 38.9813529,17.5741879 39.0163573,16.8961035 C39.1958796,16.4615494 39.4669134,16.113506 39.51992,15.631446 C39.7249455,15.5419349 39.6234329,15.3194072 39.7914538,15.1793897 C39.9364718,14.9913663 39.8524614,14.7423353 39.8834652,14.5248083 C39.6449356,14.3127819 39.2303839,14.4187951 38.9398478,14.4818029 C38.3267715,14.61882 37.6931926,14.6928292 37.0696149,14.7988424 C36.9936055,14.9218577 36.9270972,15.0753768 36.756576,15.1258831 C36.732573,15.2999047 36.6050571,15.4744265 36.6570636,15.631446 C36.4245346,15.7024549 36.5150459,16.0119934 36.3745284,16.1700131 C36.4025319,16.2780265 36.4200341,16.3695379 36.46804,16.4500479 C36.3620269,16.3610368 36.2605142,16.555061 36.1510006,16.5980664 C36.2535133,16.924607 35.9089704,17.0551233 35.9389742,17.3706625 C35.5589269,17.5391835 35.647938,17.9677369 35.5774292,18.2542725 C35.3634025,18.402291 35.4644151,18.6388204 35.2763917,18.820343 C35.4774167,18.9678614 35.0808674,19.045371 35.2498884,19.2178925 C35.0158593,19.406916 35.3654028,19.663948 35.1348741,19.8249681 C35.1013699,20.2800247 34.7573271,20.6170667 34.8548392,21.0906257 C34.6613151,21.197639 34.6408126,21.551183 34.3382749,21.3891628 C34.0252359,21.1826371 34.3682786,20.9636098 34.2737669,20.6830749 C34.3132718,20.081 34.5152969,19.4854258 34.6243105,18.9218557 C34.7708288,18.7208306 34.8008325,18.3977904 34.9228477,18.1627612 C35.0603648,17.4996786 35.5264228,16.9266073 35.5944313,16.2235197 C35.8749662,16.129508 35.6534386,15.6984544 35.9519758,15.5769392 C35.9764789,15.4024175 36.1234972,15.2008924 36.0249849,15.052874 C35.6534386,14.851849 35.2318862,15.1053805 34.8683409,15.0538741 C34.4527892,15.0558744 33.8722169,15.1673882 33.5526771,14.8113439 C33.5286741,14.659325 33.6426883,14.4818029 33.7842059,14.4277962 C33.9247234,14.3742895 34.1267486,14.5208078 34.2512641,14.3747896 C34.3327742,14.5338094 34.5032955,14.4843032 34.6648156,14.4923042 C35.198382,14.3887913 35.8239599,14.3722893 36.403532,14.2602753 C36.4970437,14.1247584 36.5940557,14.064751 36.6890676,13.9147323 C36.8090825,13.4861789 36.8885924,13.0226212 37.1596261,12.675078 C37.1241217,12.6105699 37.1966308,12.5170583 37.1006188,12.458551 C37.6651891,12.137011 37.2576383,11.3384116 37.6701897,10.9358614 C37.7557004,10.6368242 37.7657016,10.2517763 37.929222,10.0372496 C38.0032312,9.72171029 38.2417609,9.50268303 38.1242462,9.17514225 C38.3107695,9.00812146 38.2362602,8.58206842 38.604306,8.60407115 C38.9133445,8.51405995 39.4209077,8.60007066 39.4884161,8.96461604" id="Fill-2" sketch:type="MSShapeGroup"></path>
                <path d="M16.402542,6.02174967 C16.5340584,6.55481603 15.839972,6.68283197 15.6844526,7.13788862 C15.7604621,7.38341919 15.3804148,7.4734304 15.229396,7.63345032 C15.189891,8.11751058 14.6868284,8.37104214 14.6253208,8.79309469 C14.5598126,8.8446011 14.466301,8.89310714 14.4978049,9.00012046 L14.1302591,9.3731669 C14.2102691,9.45617724 14.0462487,9.46667854 14.0542497,9.52668601 L14.0422482,9.89573196 L13.7222083,10.1107587 C13.6692017,10.3122838 13.6967052,10.5953191 13.4791781,10.6893308 C13.5016809,10.8833549 13.2401483,10.8393494 13.2221461,10.9998694 C13.2311472,11.3114082 12.7770907,11.4084203 12.8671019,11.7879675 C12.7610887,12.0720029 12.4695524,12.29003 12.4640517,12.6000686 C12.4165458,12.8906048 12.1030068,13.0481244 12.0279974,13.3201583 C11.8669774,13.4346725 12.0209965,13.6441986 11.8309729,13.7557125 C11.8734782,14.2932794 11.3394117,14.4402977 11.3424121,14.9418602 C10.9288606,15.4579244 10.9288606,16.241522 10.5543139,16.8050921 C10.2752792,17.4396711 10.1762669,18.0642489 9.78671839,18.6258188 C9.88373046,18.9478589 9.45417699,19.077375 9.56569087,19.3999152 C9.26915395,19.6774497 9.35916516,20.056997 9.13013665,20.370536 C9.12313578,20.828093 8.74608884,21.1561338 8.78809406,21.5741859 C8.71758529,21.8027143 8.58706904,22.0392438 8.64507626,22.3122777 C8.38004326,22.8298422 8.24302621,23.5099268 8.23902571,24.0704966 C8.19552029,24.1990126 8.01699807,24.2080138 7.89548294,24.2385175 C7.70545928,24.2175149 7.6019464,24.0874987 7.53243774,23.9164775 C7.59644571,23.3469065 7.96399147,22.9738601 7.895983,22.4052893 C8.12501151,22.0762484 7.99849576,21.751708 8.21502272,21.4061649 C8.18301874,21.165635 8.51806045,20.9516083 8.43204974,20.6620723 C8.88010552,20.105503 8.59306979,19.2448959 9.17814262,18.779838 C9.33966273,18.2652739 9.39066908,17.679701 9.77521696,17.293653 C9.74771353,16.7440845 10.2372745,16.3415344 10.2487759,15.7209572 C10.4688033,15.213394 10.7823423,14.7908414 10.8953564,14.1822656 C11.1388867,13.9877414 11.1868927,13.6982053 11.3449124,13.4791781 C11.4074202,12.7910924 11.9939932,12.4435491 12.0960059,11.8039695 C12.3155332,11.5639396 12.3255345,11.2098956 12.5180584,10.9498632 C12.6470745,10.5953191 12.819596,10.378292 12.9191084,10.0197474 C13.349662,9.61069647 13.4351726,8.98311834 13.7982178,8.52206094 C14.0017431,8.42704912 13.9102317,8.18001836 14.0712518,8.06450398 C14.273777,7.45142766 14.7258333,6.98486957 14.9448605,6.35929169 C15.0473733,6.10476001 15.2523988,5.86222981 15.5309335,5.76071717 C15.8839775,5.77121848 16.1255075,5.85672913 16.402542,6.02174967" id="Fill-3" sketch:type="MSShapeGroup"></path>
                <g id="Group-7" sketch:type="MSShapeGroup">
                    <path d="M72.6330424,15.8149689 C72.6365428,16.0234948 72.4585206,16.2520233 72.2704972,16.3315332 C72.2619962,16.2865276 72.1899872,16.2625246 72.1514824,16.2275202 C72.0214662,16.3150311 72.1469819,16.4940534 72.0444691,16.5990665 C71.7999387,16.6580738 71.6034142,17.0326205 71.3318804,16.8490976 C71.4773985,16.6310705 71.4563959,16.3315332 71.6954256,16.2000168 C71.6124153,15.8039675 72.1179783,15.5574368 72.1494822,15.1913912 C72.4115148,15.0018676 72.8650713,14.1117568 73.0195905,14.8723515 C72.93508,15.1873907 73.0570952,15.6329462 72.6330424,15.8149689 C72.6330424,15.8149689 73.0570952,15.6329462 72.6330424,15.8149689 L72.6330424,15.8149689 L72.6330424,15.8149689 Z M74.0207151,14.6893287 C74.0287161,14.3932919 73.9402051,14.0417481 73.963208,13.7487116 L73.770684,13.3976679 C73.3351298,13.3281593 72.6800482,13.1256341 72.2980007,13.5656888 C72.3190033,13.864226 72.0269669,13.9462362 71.9374558,14.1867662 C71.6559207,14.4172949 71.5894124,14.8233454 71.3883874,15.1228827 C71.0423443,15.5094308 70.8928257,15.992991 70.6873001,16.4410468 C70.5192792,16.5975663 70.4967764,16.8906028 70.2882505,17.012618 C70.0367191,17.824219 69.7661855,18.7818382 69.8806997,19.6269434 C70.011716,19.880475 70.2077404,20.0835003 70.1817372,20.4060404 C70.469273,20.354034 70.3482579,20.8415947 70.6467951,20.7015772 C71.0443446,20.7230799 70.9323306,20.3240302 70.8838246,20.1250054 C70.4982766,19.542933 70.3562589,18.7993404 70.630293,18.1662616 C70.5212795,17.9757379 70.7323057,17.824219 70.8678226,17.6942028 C71.039344,17.6266944 71.2458697,17.5196811 71.4393938,17.6331952 C71.8854493,17.4976784 72.389012,17.3841642 72.7450563,17.0296201 C72.8970752,16.6490727 73.2656211,16.54706 73.5146521,16.2235197 C73.5976625,15.9234824 74.0257158,15.8149689 73.9057008,15.4744265 C74.196737,15.2889034 73.995212,14.8933541 74.0207151,14.6893287 L74.0207151,14.6893287 Z M74.0207151,14.6893287" id="Fill-4"></path>
                    <path d="M27.1053745,15.6974542 C27.3959106,15.3229076 27.8899721,15.1838903 28.2235137,14.9188573 C28.2650188,14.94036 28.3050238,14.9753643 28.3500294,14.9668633 C27.9279769,15.3379095 27.599936,15.6629499 27.1328779,15.8204696 L27.0833717,15.8579742 L27.1053745,15.6974542 L27.1053745,15.6974542 L27.1053745,15.6974542 L27.1053745,15.6974542 Z M32.7045715,17.0896276 C31.9969834,16.8425968 31.2203867,16.9856146 30.4642926,17.0871272 C29.6601925,17.2126429 28.732577,17.8822262 27.9429787,18.1127549 C27.4499173,18.3557852 26.8163385,18.6103169 26.3122757,18.8213431 C25.7182018,18.8273439 24.8675959,19.286401 24.4605452,18.5918146 C24.5700588,18.2362703 24.8305913,17.960736 25.0921238,17.6857018 C25.0991247,17.4201687 25.366658,17.4126678 25.4956741,17.238146 C26.2537684,17.1211315 26.956856,16.7600865 27.6459418,16.3970413 C27.9834838,15.9984917 28.5445536,15.9134811 28.8480914,15.4374219 C29.0886214,15.0998798 29.5136743,14.9218577 29.5911839,14.4728018 C29.616187,14.29778 29.5366771,14.1242584 29.3616553,14.1002554 C29.0656185,13.880228 28.6625683,13.8977302 28.2970228,13.8617257 C27.6564431,14.2027682 27.1858845,14.5958171 26.6073124,15.0198699 C26.5938108,15.3289084 26.2712706,15.2999047 26.0972489,15.4829275 L26.089248,15.4904285 C25.9937361,15.775964 25.7042,16.0800019 25.4076631,16.2050174 C25.0186147,16.9411091 24.1655085,17.2496475 23.398413,17.3456594 C22.8658467,17.2196437 22.4142904,17.6361956 21.9002264,17.3646618 C20.8370941,17.4536729 19.6294437,17.4051668 18.522806,17.3706625 C17.4911775,17.2116427 16.4380464,17.3456594 15.3954166,17.1561358 C14.7578373,17.4016664 14.0357474,17.133133 13.3656639,17.1681373 L13.2316473,17.0471223 C13.2266466,16.972613 13.2506496,16.9016041 13.2726524,16.8450971 C13.6411982,16.6250697 13.9017307,16.4360462 14.2237708,16.105505 C14.4998051,16.0354963 14.7498363,15.815969 14.8938542,15.6119436 C15.4529238,15.2819025 15.7084556,14.6628254 16.3335334,14.4002927 C16.434546,14.1912667 16.7205816,14.0347472 16.9536106,13.9457362 C17.8467218,13.1986432 18.7018283,12.2835292 19.7134542,11.6564512 L19.8264683,11.3434122 C20.3610348,10.9813671 20.8340937,10.7588394 21.2906506,10.297782 C21.318654,9.96124011 21.7627093,9.97274155 21.9522329,9.74471316 C22.0202414,9.3241608 22.4877996,9.26415333 22.5963131,8.8631034 C23.302401,8.55156462 23.3109021,7.76796706 24.0224907,7.53093756 C24.049494,7.31241035 24.2140145,7.06687978 24.4075386,6.94236428 C24.4075386,6.82384953 24.4470435,6.74083919 24.5415553,6.69333328 C24.5405552,6.11576138 25.3056504,6.27128074 25.133629,5.64220242 L25.4116636,5.30666065 C25.3921612,5.11113631 25.5361791,4.90811103 25.6926986,4.83810231 C25.6836975,4.43805251 25.9012245,4.0049986 25.8957239,3.57594518 C25.768708,3.4114247 25.9197268,3.14889202 25.8682204,2.96536917 C25.6016873,2.85735572 25.8482179,2.53331538 25.6141888,2.39979876 C25.5776843,1.74371708 24.9711088,1.62370214 24.8110888,1.01112588 C24.6015627,0.673583857 24.1840108,0.696086659 23.9584827,0.370546131 C23.3359052,0.263032746 22.8103397,0.197024528 22.2067646,0.0475059142 C20.8921009,0.134016684 19.6159421,0.40355024 18.3532849,0.659582114 C17.5551855,0.766595436 16.7735882,1.09863677 16.0039924,1.32766529 C15.1488859,1.53169069 14.3257835,1.84272941 13.5046813,2.12426446 C12.0870048,2.68733456 10.6453253,3.20189862 9.32216055,3.95499237 C8.72558628,3.98299586 8.32103592,4.49555967 7.74146377,4.63057648 C6.7063349,5.32966351 5.52668804,5.64020217 4.48155793,6.41229829 C3.65995564,6.82785003 2.76584433,7.21989883 2.03725363,7.83847584 C1.86923271,7.87648057 1.66520731,7.8509774 1.56719511,8.04600168 C1.23315352,8.22602409 0.818101849,8.11451021 0.511563687,8.31353498 C0.437554473,8.55556512 0.726090394,8.60707153 0.85160602,8.78559375 C1.26415738,8.92661131 1.31116323,9.49468203 1.83372829,9.4566773 C2.31878868,9.48868128 2.37879615,8.88760645 2.68883474,8.66057819 C3.64845421,8.21802309 4.30853639,7.44142641 5.29615934,7.12188663 C6.10776038,6.43880159 7.06837997,6.21927426 7.84147622,5.60469775 C8.95361467,5.00412298 10.0217476,4.51556216 11.1443874,3.94599125 C11.4394241,3.71646268 11.8369736,3.61795041 12.2020191,3.54594145 C13.09313,2.931865 14.185266,2.72883972 15.1833902,2.32028886 C15.4314211,2.11426321 15.7834649,2.14476701 16.056999,1.97074535 C17.0936281,1.84873016 18.0292445,1.35916921 19.0828757,1.22515252 C19.960985,0.832103592 20.9816121,0.960119529 21.9382312,0.769095748 C22.5293048,0.784097615 23.4444187,0.810100853 23.9999879,1.10113708 C24.226016,1.5446923 24.6605701,1.8507304 24.6385674,2.38129646 C25.0141141,3.16839445 24.3285288,3.79397233 24.4645457,4.59507206 C24.3260284,4.7560921 24.2040133,4.90361047 24.1910116,5.12413792 C23.8684715,5.57269377 23.671447,6.08025696 23.237893,6.47080558 C23.1103771,6.64732755 23.1063766,6.92786248 22.8613461,6.9858697 C22.514803,7.74196383 21.7552084,8.25452764 21.2606468,8.88760645 C20.5910635,9.26315321 20.3880382,9.94773843 19.6564471,10.2272732 C19.3014029,10.8188469 18.6298193,11.0903807 18.2507721,11.6354485 C17.952735,11.8789789 17.6596985,12.2120203 17.3461595,12.4690523 C16.916106,12.7110825 16.6640746,13.1841413 16.1670127,13.3721648 C16.1260076,13.57519 15.9289831,13.6096943 15.7939663,13.7402106 C15.3494109,14.21777 14.739335,14.4818029 14.4202952,15.0198699 C14.2162698,15.1128815 14.0182452,15.3839152 13.7692142,15.4854278 C13.6852037,15.5639376 13.695705,15.7134562 13.5461864,15.7244576 C13.309657,15.9614871 12.9556129,16.065 12.8521,16.4220444 C12.5285597,16.6330707 12.1995188,16.9036044 11.8134707,17.0326205 C11.751963,17.1581361 11.8164711,17.2401463 11.767465,17.3961657 C11.8089701,17.7717125 12.1965184,17.7467094 12.4280472,17.9092296 C12.8656017,17.8447216 13.430672,18.1822636 13.8302218,17.9507348 C14.6038181,17.9157304 15.350411,17.9942402 16.097004,17.9402335 C17.3451594,17.7857142 18.7373327,18.0187432 20.0880008,17.9967405 C20.4470455,18.0852515 20.844595,17.8687245 21.2031397,18.0772505 C21.8357184,18.1127549 22.499301,18.1357578 23.0513698,17.9827387 C23.3359052,18.0772505 23.5989379,17.8732251 23.8939747,17.8812261 C24.0504941,17.9302322 23.9974875,18.1157553 23.9839859,18.2187681 C23.8384677,18.55481 24.0264912,18.7983403 24.000988,19.1213805 C24.4645457,20.0454955 25.607688,19.5094288 26.3472801,19.5234305 C27.6229389,19.2118918 29.086121,18.1922648 30.3287757,17.7872144 C31.1953836,17.5896898 31.7114479,17.6286947 32.4100349,17.6221939 C32.5390509,17.655198 32.6710673,17.75221 32.6230614,17.8787258 C32.5410512,18.2192682 32.5915575,18.55481 31.1938834,19.4599226 C30.9383516,19.5869385 30.9148487,19.6814502 30.4632925,19.9069783 C29.9457281,20.3240302 29.2716441,20.3630351 28.6865713,20.6225674 C28.7010731,20.7285806 28.5770577,20.8740987 28.7150749,20.9516083 C29.4561671,20.9516083 30.2947715,21.1136285 30.9058476,20.5625599 C31.2918957,20.4525462 31.5994339,20.3770368 31.8799689,20.0604974 C32.0709926,19.864473 32.2690173,19.864473 32.5005461,19.6579473 C32.596058,19.6119416 32.716073,19.0318694 32.796583,18.9553598 C32.8785932,18.8788503 33.6611906,18.305779 33.7021957,17.807717 C33.5216732,17.3961657 33.1516272,17.1811389 32.7045715,17.0896276 L32.7045715,17.0896276 Z M32.7045715,17.0896276" id="Fill-6"></path>
                </g>
            </g>
        </g>
    </g>
</svg>