<?xml version="1.0" encoding="UTF-8" standalone="no"?>
<svg width="68px" height="35px" viewBox="0 0 68 35" version="1.1" xmlns="http://www.w3.org/2000/svg" xmlns:xlink="http://www.w3.org/1999/xlink" xmlns:sketch="http://www.bohemiancoding.com/sketch/ns">
    <title>botox</title>
    <description>Created with Sketch (http://www.bohemiancoding.com/sketch)</description>
    <defs>
        <path id="path-1" d="M0,0.29862024 L66.6152843,0.29862024 L66.6152843,15.1681298 L0,15.1681298 L0,15.1681298 L0,0.29862024"></path>
        <mask id="mask-2" sketch:name="Clip 3" fill="white">
            <use xlink:href="#path-1"></use>
        </mask>
    </defs>
    <g id="Page-1" stroke="none" stroke-width="1" fill="none" fill-rule="evenodd" sketch:type="MSPage">
        <g id="Artboard-1" sketch:type="MSArtboardGroup" transform="translate(-422.000000, -25.000000)">
            <g id="Botox" sketch:type="MSLayerGroup" transform="translate(422.552605, 35.004358)">
                <path d="M64.7787327,7.83637307 C64.7787327,7.32805177 65.187761,6.91939404 65.6949708,6.91939404 C66.2044036,6.91939404 66.6152843,7.32805177 66.6152843,7.83637307 C66.6152843,8.34506487 66.2044036,8.75594557 65.6949708,8.75594557 C65.187761,8.75594557 64.7787327,8.34506487 64.7787327,7.83637307 M64.9306363,7.83637307 C64.9306363,8.26022115 65.2714932,8.60478297 65.6949708,8.60478297 C66.1195599,8.60478297 66.4633807,8.26022115 66.4633807,7.83637307 C66.4633807,7.41289548 66.1195599,7.07166814 65.6949708,7.07166814 C65.2714932,7.07166814 64.9306363,7.41289548 64.9306363,7.83637307 M65.9306066,8.34506487 L65.8431694,8.19056779 C65.7175711,7.96901084 65.6708885,7.92714473 65.5489951,7.92714473 L65.453407,7.92714473 L65.453407,8.34506487 L65.2948345,8.34506487 L65.2948345,7.35806199 L65.7305384,7.35806199 C65.9754367,7.35806199 66.0576869,7.51070658 66.0576869,7.6170391 C66.0576869,7.77709362 65.9424625,7.89083606 65.7753685,7.90120997 L65.7753685,7.90602642 C65.8605827,7.93603665 65.9224557,8.02088036 66.0050764,8.15351814 L66.1240058,8.34506487 L65.9306066,8.34506487 M65.453407,7.78894951 L65.6831149,7.78894951 C65.8057493,7.78894951 65.886888,7.74189644 65.886888,7.63926889 C65.886888,7.54997922 65.8164937,7.49292274 65.7109021,7.49292274 L65.453407,7.49292274 L65.453407,7.78894951" id="Fill-1" fill="#FFFFFF" sketch:type="MSShapeGroup"></path>
                <g id="Group-7" sketch:type="MSShapeGroup">
                    <use id="Clip-3" xlink:href="#path-1"></use>
                    <path d="M9.74220745,15.0825451 L11.8873826,4.19661471 L16.7371828,4.19661471 C20.6703744,4.19661471 21.8096514,5.56967502 21.8096514,6.83010437 C21.8096514,7.88305564 21.0497629,8.7303813 19.5970459,9.25611595 C21.1127474,9.57214952 22.119757,10.4057668 22.3724357,11.4135175 C22.3739177,11.6135857 22.394295,11.8084669 22.4339381,11.9963086 C22.3783637,13.3297258 20.8467308,15.0825451 17.206602,15.0825451 L9.74220745,15.0825451 M13.2956401,13.2626659 L16.3796536,13.2626659 C18.390709,13.2626659 19.0827966,12.4968495 19.0827966,11.6669372 C19.0827966,10.6606685 17.8101409,10.2297809 16.2451633,10.2297809 L13.9436386,10.2297809 L13.2956401,13.2626659 M14.278938,8.41064276 L16.4693138,8.41064276 C18.0335503,8.41064276 18.6352368,7.80451036 18.6352368,7.11760971 C18.6352368,6.44701091 17.9657494,6.01649389 16.4904321,6.01649389 L14.7931873,6.01649389 L14.278938,8.41064276" id="Fill-2" fill="#FFFFFF" mask="url(#mask-2)"></path>
                    <path d="M22.3724357,11.3953632 C22.3724357,8.74927663 25.2208134,6.81046805 29.0925026,6.81046805 C31.0479835,6.81046805 32.6451943,7.33620269 33.6321971,8.21353858 L33.6192298,8.28245094 L33.7081489,8.28245094 C34.3572589,8.89154731 34.7225686,9.66032771 34.7225686,10.5332176 C34.7225686,13.3463981 31.9242079,15.1903596 28.1369919,15.1903596 C24.8199361,15.1903596 22.3724357,13.633533 22.3724357,11.3953632 M24.8858845,11.3116309 C24.8858845,12.712849 26.2267116,13.6816975 28.1544053,13.6816975 C30.4159164,13.6816975 32.2087493,12.3412409 32.2087493,10.652888 C32.2087493,9.30020504 30.834948,8.31875961 28.9246676,8.31875961 C26.7128031,8.31875961 24.8858845,9.67144261 24.8858845,11.3116309" id="Fill-4" fill="#FFFFFF" mask="url(#mask-2)"></path>
                    <path d="M35.8992657,15.0825451 L37.2393518,8.28245094 L33.6192298,8.28245094 L33.8874693,6.91791206 L43.657464,6.91791206 L43.388854,8.28059846 C43.387372,8.28133946 43.386631,8.28208045 43.3862605,8.28245094 L39.6690683,8.28245094 L38.3286117,15.0825451 L35.8992657,15.0825451" id="Fill-5" fill="#FFFFFF" mask="url(#mask-2)"></path>
                    <path d="M41.7164324,11.3953632 C41.7164324,8.74927663 44.5648101,6.81046805 48.4357583,6.81046805 C51.7717095,6.81046805 54.0673063,8.34247139 54.0673063,10.5332176 C54.0673063,13.3463981 51.2685751,15.1903596 47.4809886,15.1903596 C44.1631918,15.1903596 41.7164324,13.633533 41.7164324,11.3953632 M44.2302517,11.3116309 C44.2302517,12.712849 45.5699673,13.6816975 47.498402,13.6816975 C49.7599131,13.6816975 51.553487,12.3412409 51.553487,10.652888 C51.553487,9.30020504 50.1793152,8.31875961 48.2686643,8.31875961 C46.0575408,8.31875961 44.2302517,9.67144261 44.2302517,11.3116309" id="Fill-6" fill="#FFFFFF" mask="url(#mask-2)"></path>
                </g>
                <path d="M60.4383654,15.0825451 L58.1420276,12.3649527 L54.7404985,15.0825451 L51.7242859,15.0825451 L56.902346,10.8922288 L53.5504635,6.91791206 L56.2150749,6.91791206 L58.4943698,9.59993677 L61.7625201,6.91791206 L64.7787327,6.91791206 L59.7177495,11.0711787 L63.1029767,15.0825451 L60.4383654,15.0825451" id="Fill-8" fill="#FFFFFF" sketch:type="MSShapeGroup"></path>
                <path d="M0.102998048,4.56007185 L0.0511285274,4.56007185 L0.102998048,4.56007185 C0.0970701028,3.44339517 1.41603791,2.39007341 3.5812199,1.63240791 C5.74343791,0.872889932 8.73667975,0.401988784 12.0407682,0.401988784 C16.331489,0.400877295 20.0979572,1.19855642 22.1990433,2.38562745 C20.0368253,1.64092933 17.0732232,1.1796611 13.799145,1.1796611 C10.499132,1.1796611 7.51033608,1.64611628 5.34107863,2.40081781 C3.17663764,3.15848331 1.81543322,4.19661471 1.80876428,5.39146617 L1.8606338,5.39146617 L1.80876428,5.39146617 C1.80950527,6.09763264 2.2937443,6.74933612 3.13217805,7.32138283 C1.23597658,6.57927819 0.0963291096,5.59746226 0.102998048,4.56007185" id="Fill-9" fill="#FFFFFF" sketch:type="MSShapeGroup"></path>
                <path d="M0,4.56007185 L0.102998048,4.56007185 C0.0963291096,5.59746226 1.23597658,6.57927819 3.13217805,7.32138283 C3.25851738,7.40696754 3.39152565,7.49144076 3.53379634,7.57295 L3.56010159,7.52811992 L3.53379634,7.57295 C3.54342925,7.57924844 3.55491464,7.58554689 3.56565904,7.59110433 C1.37898825,6.82454692 0.00778042809,5.77048416 0,4.56007185 M0,4.56007185 C0.00666893836,3.35262351 1.37306031,2.30078373 3.54676372,1.53422632 C5.72491308,0.77026238 8.72667634,0.29862024 12.0407682,0.29862024 C16.6482636,0.29862024 20.6499971,1.20893033 22.6762429,2.55568538 L22.6740199,2.55864935 C22.5447166,2.50937331 22.4120788,2.46009726 22.2761066,2.4126737 C22.2505423,2.40304079 22.2249781,2.39451937 22.1990433,2.38562745 C20.0979572,1.19855642 16.331489,0.400877295 12.0407682,0.401988784 L12.0407682,0.35048976 L12.0407682,0.401988784 C8.73667975,0.401988784 5.74343791,0.872889932 3.5812199,1.63240791 C1.41603791,2.39007341 0.0970701028,3.44339517 0.102998048,4.56007185 L0,4.56007185 M22.6740199,2.55864935 L22.6762429,2.55568538 L22.6747609,2.55864935 C22.6747609,2.55864935 22.6747609,2.55864935 22.6740199,2.55864935" id="Fill-10" fill="#FFFFFF" sketch:type="MSShapeGroup"></path>
                <path d="M3.58566586,7.48291933 L3.56010159,7.52811992 L3.58566586,7.48291933 C2.51456026,6.86233757 1.91102134,6.14172173 1.91250332,5.39146617 L1.8606338,5.39146617 L1.91250332,5.39146617 C1.90583438,4.28923885 3.21924474,3.24888447 5.37479382,2.4993699 C7.52886091,1.74911433 10.5083944,1.28414113 13.799145,1.28414113 C17.1021219,1.28414113 20.0883243,1.75430128 22.2420209,2.5104848 C22.6025141,2.63793562 22.941148,2.77168488 23.2534766,2.91247358 C23.0960155,2.87023697 22.93522,2.82874135 22.771831,2.78798673 C20.825242,2.31041664 18.4555459,2.02846875 15.8950441,2.02846875 L15.8950441,2.08033827 L15.8950441,2.02846875 C12.5954016,2.02846875 9.60623521,2.49492394 7.43808925,3.25036646 C5.27327776,4.00692046 3.91318483,5.04542236 3.90503391,6.23990332 C3.9054044,6.86011459 4.28331091,7.44068273 4.94316531,7.95974843 C5.08988195,8.07571386 5.25141846,8.1894563 5.42629284,8.29875279 C4.71864439,8.05533654 4.09880361,7.78079858 3.58566586,7.48291933" id="Fill-11" fill="#FFFFFF" sketch:type="MSShapeGroup"></path>
                <path d="M5.94276507,8.54031656 C4.7279068,7.88861309 4.02136983,7.11205226 4.02136983,6.27769397 C4.02136983,3.98246769 9.3691174,2.11924041 15.959881,2.11924041 C18.9957299,2.11924041 21.7666738,2.51456026 23.8740583,3.16589324 C24.181941,3.26074036 24.4435116,3.35077103 24.722125,3.45636255 C24.5505851,3.42153587 24.4046094,3.40004707 24.2278826,3.36818437 C22.5287853,3.05919022 20.5862717,2.88209286 18.5203828,2.88209286 C11.8829367,2.88209286 6.49591646,4.69011615 6.49591646,6.91717106 C6.49591646,7.74189644 7.24061457,8.52290322 8.50697187,9.16163932 C9.19016755,9.50620113 9.28056872,9.57326101 10.22163,9.8340906 C8.19316127,9.53991632 7.16984973,9.19683649 5.94276507,8.54031656" id="Fill-12" fill="#FFFFFF" sketch:type="MSShapeGroup"></path>
            </g>
        </g>
    </g>
</svg>