<?xml version="1.0" encoding="utf-8"?>
<!-- Generator: Adobe Illustrator 17.0.0, SVG Export Plug-In . SVG Version: 6.00 Build 0)  -->
<!DOCTYPE svg PUBLIC "-//W3C//DTD SVG 1.1//EN" "http://www.w3.org/Graphics/SVG/1.1/DTD/svg11.dtd">
<svg version="1.1" id="Layer_1" xmlns="http://www.w3.org/2000/svg" xmlns:xlink="http://www.w3.org/1999/xlink" x="0px" y="0px"
	 width="100px" height="100px" viewBox="0 0 100 100" enable-background="new 0 0 100 100" xml:space="preserve">
<g>
	<g>
		<g>
			<g>
				<path fill="#C8C0DF" d="M24.136,73.548c0,0-1.996,1.101-3.139,0.43c0,0,1.103,1.736,5.356-0.651
					c3.95-2.218,4.348-3.068,6.357-4.157c0.868-0.475,1.218-0.744,1.218-0.744c-1.318,0.606-2.535,1.347-4.104,1.564
					c-1.57,0.213-2.416-0.049-3.434,0.817c-1.015,0.866-1.62,0.891-1.98,0.658c0,0,0.74,0.79,1.641,0.986
					C25.31,72.471,24.205,72.654,24.136,73.548z"/>
				<path fill="#C8C0DF" d="M27.077,61.46c0.001,0.004,0.002,0.009,0.004,0.011c0.513,2.958,6.611,2.583,6.675,2.578
					c9.158-0.617,16.901,1.049,23.011,4.95c0.059,0.039,0.136,0.022,0.172-0.038c0.039-0.059,0.022-0.137-0.037-0.173
					c-0.56-0.361-1.086-0.732-1.641-1.108c-0.414-0.284-0.751-0.646-0.844-1.156c-0.134-0.722-0.634-2.892-1.651-3.405
					c-1.019-0.514-1.378-0.985-1.284-1.421c0,0-1.13,1.113-1,2.316c0.04,0.372,0.617,1.043,0.87,1.265
					c0.407,0.353,0.786,0.6,0.787,0.745c0.013,0.346-0.44,0.195-0.584,0.091c-0.245-0.178-0.508-0.555-0.798-0.855
					c-0.226-0.232-0.362-0.499-0.615-0.701c-0.489-0.386-1.227-0.528-1.833-0.682c-1.173-0.304-1.376-1.393-1.376-1.393
					s-0.614,0.603-0.494,1.309c0.012,0.072,0.03,0.146,0.06,0.219c0.31,0.792-0.999-2.4-2.02-1.835c0,0-0.676-1.819-1.38-1.431
					c0,0-1.277-0.656-0.041-1.466c0,0-1.823,0.516-1.902,1.635c-0.081,1.119,0.467,1.479,0.914,1.917c0,0-0.652,0.297-1.291-0.347
					c-0.637-0.642-1.626-2.161-2.975-1.989c-1.348,0.174-2.105,0.567-2.958-0.226c0,0,2.161,2.363,5.276,3.254
					c0.432,0.124,0.87,0.228,1.308,0.323c-2.44-0.208-5.004-0.228-7.691-0.047c-0.947,0.064-2.732,0.02-4.183-0.433l0.001-0.006
					c-0.942-0.352-1.648-0.987-1.487-1.596c0.171-0.641,1.067-0.879,0.591-1.492c-0.501-0.647-1.61,0.039-1.606,0.951
					c-0.004,0.006-0.008,0.009-0.008,0.013c0,0.008,0.003,0.016,0.003,0.024C27.055,61.327,27.063,61.393,27.077,61.46z"/>
				<path fill="#C8C0DF" d="M59.64,70.699c5.225,4.731,5.602,8.525,5.088,10.891c0,0,0.835-2.216,0.702-4.588
					c-0.085-1.519,1.537-2.038,1.373-3.181c-0.163-1.145-0.496-1.34-0.369-1.831c0,0-1.639,0.439-2.078,1.33
					c0.205-0.626,0.628-2.277-0.166-3.553c-0.997-1.604-1.78-1.502-1.707-2.555c0,0-1.526,1.839-1.261,2.888
					c0,0-1.289-2.934-2.568-2.08c0,0-0.681-1.548-1.37-1.341c0,0-0.35-0.138-0.671-0.531c-0.318-0.395-0.226-0.63-0.226-0.63
					C55.922,66.012,56.244,67.624,59.64,70.699z"/>
				<path fill="#C8C0DF" d="M64.356,83.681c-0.499,0.797-1.123,1.472-1.823,2.018c0.341-0.336,0.649-0.713,0.903-1.124
					c1.594-2.59,1.436-6.012-0.352-9.139c-1.731-3.022-4.895-5.578-8.577-7.226c-0.926-0.481-2.009-0.968-3.256-1.404
					c-0.863-0.327-1.789-0.592-2.763-0.802c-3.703-0.989-7.701-1.428-12.095-1.331c-1.325,0.031-2.74,0.126-4.194,0.256
					c-0.624-0.058-1.331-0.164-1.875-0.369c-1.231-0.458-1.046-0.057-1.046-0.057c-0.418,0.045-0.741,0.192-1.407-0.523
					c-1.406-1.505-1.629-0.472-1.629-0.472c-1.138-0.89-1.01,0.026-1.01,0.026c-2.144-2.67-3.811-1.419-4.523-1.485
					c-0.71-0.064-1.328-1.095-1.328-1.095c0.782,2.552,3.577,3.76,6.646,4.212c-5.994-0.187-8.498-1.528-9.494-2.828
					c-0.11-0.142-0.201-0.289-0.269-0.436c-0.229-0.709,0.162-1.872,0.916-1.492c0.34,0.171,0.149,0.683,0.556,0.79
					c0.409,0.108,0.574-0.509,0.352-0.943c-0.307-0.609-1.043-0.872-1.488-0.69c-0.348,0.103-0.752,0.57-0.818,0.993
					c-0.105,0.639,0.048,1.277,0.551,1.931c1.1,1.434,3.949,2.918,10.994,2.944c-0.146,0.018-0.298,0.033-0.445,0.051
					c-2.158,0.244-4.196,0.475-6.082,0.614c-1.261,0.094-2.608,0.134-3.939,0.078c0.294-0.893,0.035-2.007-1.245-2.655
					c-1.222-0.618-2.548-0.523-3.475,0.427c-0.317,0.326-0.576,0.722-0.774,1.155c-1.433-0.618-2.584-1.213-3.151-2.581
					c-0.751-1.811,0.114-3.384,1.062-3.895c0.965-0.518,2.184-0.362,2.964,0.422c0.272,0.271,0.546,0.726,0.298,1.104
					c-0.132,0.193-0.541,0.381-0.763,0.209c-0.453-0.349-1.036-0.341-1.292,0.101c-0.185,0.322-0.078,0.818,0.32,1.156
					c0.017,0.032,0.037,0.063,0.074,0.081c0.044,0.026,0.091,0.043,0.136,0.063c0.108,0.061,0.225,0.116,0.361,0.152
					c0.112,0.031,0.225,0.033,0.334,0.016c0.384,0.004,0.738-0.143,1.012-0.445c0.533-0.585,0.602-1.564,0.153-2.227
					c-1.017-1.51-2.757-1.688-3.861-1.092c-1.175,0.631-2.258,2.639-1.559,4.369c0.576,1.426,1.891,2.572,3.673,3.207
					c-0.286,0.946-0.28,1.976,0.061,2.811c-3.914-1.076-6.152-3.515-6.651-4.041c-2.809-2.714-2.18-5.919-3.505-5.952
					c-1.356,0.017-0.353,3.76,2.763,6.775c0.547,0.61,3.267,3.252,7.893,4.114c3.054,4.343,10.259,1.718,17.083-0.784
					c4.016-1.472,7.817-2.695,12.12-2.87c1.998-0.079,4.249-0.191,6.213,0.257c0.207,0.048,0.419,0.095,0.624,0.147
					c-3.572-0.358-6.536-0.11-9.705,0.96c-3.505,1.18-5.898,2.941-8.627,4.84c-0.675,0.474-1.338,0.961-2.036,1.402
					c-1.281,0.808-2.655,1.562-4.202,1.635c-0.711,0.034-1.532-0.037-2.126-0.472c-0.012-0.012-0.026-0.021-0.041-0.034
					c-0.371-0.307-0.989-1.22-0.814-1.699c-0.724,1.967,0.73,2.602,0.73,2.602s0.012,0.502,0.265,0.894
					c0.52,0.807,2.465,1.259,3.957-0.227c0.82-0.811,1.686-1.064,1.686-1.064c-1.708,0.86-1.48,2.93-1.48,2.93
					s0.048-0.564,0.747-0.749c0.006,0.015,0.009,0.021,0.014,0.038c0.204,0.52,1.298-0.018,1.298-0.018
					c0.183,0.167,0.563,0.357,0.781,0.436c0.789,0.294,1.421-0.765,1.421-0.765s0,0,0.267,0.097
					c0.844,0.313,0.904-0.981,0.949-1.501c0.105-1.183,0.252-2.291,0.668-3.414c-0.49,1.328,0.231,2.867,0.596,3.188
					c-0.054-0.093-0.267-0.59,0.842-1.167c0.419-0.218,0.694-0.575,0.886-0.991c0.483,0.051,0.74-0.438,0.657-1.167
					c-0.107-0.992,1.072-2.351,1.765-2.902c1.871-1.489,4.292-2.233,6.786-2.515c-1.141,0.23-2.191,0.602-3.097,1.126
					c-3.04,1.758-4.832,4.849-3.923,8.347c0.763,2.92,3.306,4.858,6.437,5.152c2.932,0.278,4.566-1.375,5.116-3.014
					c0.328-0.972,0.24-1.892-0.163-2.819c-0.34-0.778-1.217-1.481-1.723-0.55c-0.215,0.392,0.18,0.92,0.42,1.224
					c1.139,1.43,0.684,3.349-0.876,4.32l0.054-0.006c-0.687,0.362-1.593,0.583-2.792,0.471c-2.964-0.283-5.27-2.261-5.88-5.044
					c-0.512-2.356,0.191-5.595,3.703-7.629c2.741-1.581,6.625-1.866,10.662-0.778c1.565,0.424,3.064,1.018,4.451,1.754
					c-2.373-1.177-6.112-2.515-10.374-1.969c-3.551,0.372-6.902,3.193-7.203,6.292c-0.542,3.203,1.831,4.859,2.112,5.127
					c1.856,1.383,3.829,0.862,3.733,0.668c-0.011-0.31-1.675-0.256-3.188-1.413c-0.228-0.244-2.272-1.543-1.886-4.268
					c0.171-2.744,3.083-5.453,6.512-5.949c3.68-0.61,7.073,0.295,9.47,1.274c-1.084-0.386-2.292-0.706-3.644-0.925
					c-1.989-0.327-4.88-0.425-7.327,0.947c-2.104,1.177-3.634,3.413-3.637,5.319c-0.004,0.497,0.088,1.004,0.305,1.453
					c0.385,0.787,1.131,1.542,1.94,1.878c0.563,0.233,1.641,0.273,1.9-0.504c0.005-0.013,0.009-0.027,0.013-0.042
					c0.212-0.609-0.561-0.95-0.901-0.724c-0.357,0.237-0.098,0.535-0.136,0.724c-0.089,0.457-0.917,0.246-1.167,0.112
					c-0.474-0.255-0.88-0.703-1.178-1.146c-0.351-0.515-0.529-1.127-0.528-1.752c0.007-1.819,1.483-3.964,3.51-5.1
					c2.386-1.337,5.212-1.239,7.165-0.92c0.589,0.097,1.152,0.214,1.698,0.346c-0.294-0.064-0.59-0.121-0.885-0.169
					c-3.731-0.589-6.866,0.393-8.83,2.764c-0.744,0.901-1.04,2.006-0.75,2.813c0.204,0.571,0.662,0.942,1.329,1.075
					c0.539,0.105,1.014-0.092,1.27-0.529c0.222-0.374,0.209-0.834-0.03-1.119c-0.193-0.228-0.536-0.352-0.799-0.285
					c-0.163,0.04-0.283,0.147-0.351,0.306c-0.013,0.022-0.029,0.038-0.039,0.062c-0.09,0.243,0.035,0.515,0.277,0.607
					c0.245,0.09,0.517-0.033,0.608-0.278c0.044-0.12,0.036-0.248-0.011-0.358c0.047,0.033,0.088,0.068,0.123,0.107
					c0.172,0.203,0.174,0.545,0.006,0.83c-0.2,0.34-0.574,0.492-1.002,0.408c-0.578-0.113-0.97-0.429-1.142-0.913
					c-0.259-0.724,0.019-1.733,0.711-2.566c1.901-2.301,4.953-3.25,8.592-2.678c3.71,0.587,7.299,2.637,9.604,5.293
					c0.445,0.565,0.853,1.153,1.201,1.759c1.716,3.003,1.837,6.268,0.317,8.739c-1.019,1.655-2.589,2.59-4.2,2.503
					c-1.192-0.063-2.082-0.449-2.694-0.986c0.358,0.188,0.752,0.295,1.172,0.301c0.278,0.003,0.557-0.041,0.82-0.115
					c1.337-0.341,2.321-1.426,2.553-2.883c0.321-2.008-0.703-4.234-2.543-5.537c-2.373-1.682-5.254-2.155-7.483-1.051
					c-1.352,0.669-2.395,1.828-2.709,3.392c-0.258,1.277-0.076,2.456,0.793,3.452c0.297,0.339,1.309,1.047,2.28,0.992
					c0.017,0.004,0.036,0.008,0.036,0.008c0.292,0.009,0.612-0.114,0.878-0.298c0.345-0.246,0.561-0.587,0.389-0.841
					c-0.304-0.449-1.188,0.295-2.001,0.228c-0.596-0.051-1.403-0.303-1.781-1.074c-0.315-0.732-0.399-1.569-0.222-2.411
					c0.287-1.34,1.186-2.473,2.467-3.107c2.145-1.063,4.908-0.712,7.208,0.917c1.764,1.251,2.745,3.379,2.44,5.291
					c-0.087,0.548-0.289,1.037-0.581,1.45c0.793-1.559,0.575-3.467-0.597-4.971c-1.182-1.516-3.626-2.849-6.638-1.891
					c-1.18,0.376-2.285,1.514-2.463,2.643c-0.109,0.69,0.22,1.293,0.649,1.544c0.368,0.213,1.004,0.162,1.276-0.222
					c0.356-0.505,0.202-1.169-0.425-1.201c-0.724-0.034-0.787,0.848-0.355,1.044c0.364,0.164-0.116,0.285-0.369,0.16
					c-0.196-0.114-0.506-0.428-0.38-1.229c0.161-1.006,1.343-2.106,2.289-2.418c2.861-0.939,5.09,0.274,6.216,1.725
					c1.218,1.56,1.363,3.49,0.384,5.041c-0.305,0.481-0.803,0.831-1.366,1.001c-0.133,0.033-0.265,0.067-0.413,0.089
					c-0.116,0.013-0.231,0.023-0.347,0.02c-0.771-0.012-1.439-0.371-1.915-1.014c-0.136-0.288-0.219-0.58-0.245-0.866
					c-0.035-0.436,0.061-0.827,0.259-1.143c0.421-0.362,0.956-0.326,1.434-0.033c0.88,0.528,1.319-0.114,0.944-0.726
					c-0.258-0.416-1.291-0.7-2.162-0.015c-0.595,0.418-0.922,1.117-0.851,1.947c0.021,0.243,0.078,0.492,0.166,0.741
					c0.112,0.414,0.533,1.039,1.039,1.486c0.333,0.295,0.883,0.605,1.245,0.728c0.865,0.294,1.044,0.306,1.881,0.34
					c-0.08,0-0.15-0.004-0.23-0.011c0.738,0.055,1.531-0.157,2.213-0.424c0.196-0.078,0.392-0.169,0.581-0.268
					c0.795-0.419,1.563-0.952,2.175-1.614c0.359-0.386,0.687-0.822,0.965-1.27c0.303-0.484,0.565-1.014,0.805-1.573
					c0.05-0.329,0.093-0.664,0.131-1.005C65.175,82.12,64.806,82.957,64.356,83.681z M12.547,64.415
					c0.642-0.658,1.339-0.821,2.255-0.638c1.345,0.267,2.19,2.1,0.962,2.079c-0.346-0.006-0.874-0.276-1.286,0.095
					c-0.91-0.139-1.779-0.345-2.574-0.632C12.076,64.987,12.288,64.678,12.547,64.415z M28.641,68.311
					c-6.454,2.366-13.109,4.802-16.155,1.265c0.371,0.051,0.754,0.092,1.149,0.116c5.728,0.573,12.383-1.394,19.228-2.878
					c0.003,0,0.005-0.002,0.009-0.004C31.515,67.258,30.095,67.777,28.641,68.311z M33.077,66.299
					c-6.774,1.125-13.968,3.395-19.376,2.711c-0.641-0.057-1.242-0.155-1.815-0.282c-0.024-0.043-0.052-0.082-0.076-0.126
					c-0.424-0.789-0.446-1.788-0.152-2.693c0.738,0.223,1.56,0.388,2.464,0.5c-0.005,0.053-0.017,0.101-0.007,0.159
					c0.056,0.336,0.274,0.608,0.579,0.759c0.02,0.017,0.039,0.032,0.066,0.04c0.044,0.018,0.09,0.023,0.135,0.035
					c0.024,0.007,0.049,0.013,0.076,0.02c0.07,0.014,0.139,0.028,0.21,0.032c0.016,0,0.034,0,0.05,0c0.085,0.004,0.171,0,0.253-0.01
					c0.006-0.002,0.01-0.003,0.016-0.003c0.084-0.015,0.169-0.033,0.247-0.061c0.015-0.004,0.027-0.005,0.043-0.01
					c0.058-0.019,0.114-0.048,0.168-0.081c0.294-0.156,0.54-0.406,0.716-0.698c1.271,0.032,2.655-0.007,4.152-0.117
					c1.894-0.14,3.938-0.371,6.096-0.616c3.238-0.365,6.583-0.743,9.48-0.808c2.56-0.057,4.985,0.071,7.298,0.385
					C39.835,65.269,36.57,65.659,33.077,66.299z"/>
				<path fill="#C8C0DF" d="M62.691,78.369c-1.381-1.637-2.849-0.554-3.395-1.259c0,0,0.78,1.367,1.82,1.628
					c0,0-0.731,0.288-0.281,1.234c0.449,0.944,0.92,0.883,1.212,1.93c0.502,1.803-0.443,3.374-0.443,3.374
					C63.006,84.251,64.211,80.173,62.691,78.369z"/>
				<path fill="#C8C0DF" d="M48.075,70.642c0,0,1.35-0.167,2.668,1.119c1.246,1.217,2.393,1.14,4.802,0.209
					c0.58-0.223,1.384-0.205,1.865,0.088c0,0-1.367-0.109-2.091,0.493c-0.718,0.6-1.52,1.168-2.012,0.939c0,0,1.42,1.347,3.358,0.71
					c0,0-0.122,0.985,1.93,0.437c0,0,0.165,0.904,1.316,0.856c0.754-0.03,1.271,0.085,1.859,0.566
					c0.337,0.278,0.981,1.332,0.981,1.332C60.663,71.34,53.436,67.805,48.075,70.642z"/>
			</g>
		</g>
		<g>
			<path fill="#C8C0DF" d="M83.614,17.09c-0.15,0.028-0.383-0.179-0.572,0.102c-0.182,0.268,0.083,0.878,0.563,0.714
				c0.011-0.003,0.024-0.007,0.034-0.01c0.614-0.199,0.591-1.048,0.41-1.494c-0.26-0.639-0.85-1.233-1.467-1.544
				c-0.35-0.175-0.749-0.249-1.143-0.251c-1.502-0.01-3.275,1.18-4.219,2.83c-1.1,1.921-1.044,4.197-0.802,5.768
				c0.058,0.376,0.138,0.721,0.214,1.069c0.292,0.631,0.594,1.261,0.921,1.87c-0.278-0.767-0.492-1.556-0.611-2.357
				c-0.425-2.871,0.347-5.272,2.175-6.755c0.661-0.538,1.457-0.75,2.029-0.54c0.38,0.138,0.625,0.45,0.71,0.906
				c0.063,0.339-0.059,0.633-0.329,0.789c-0.226,0.13-0.496,0.126-0.653-0.011c-0.033-0.028-0.059-0.062-0.085-0.1
				c0.085,0.04,0.185,0.047,0.282,0.013c0.193-0.071,0.293-0.285,0.223-0.478c-0.069-0.192-0.282-0.292-0.478-0.223
				c-0.017,0.008-0.033,0.022-0.048,0.032c-0.125,0.053-0.212,0.147-0.244,0.275c-0.053,0.207,0.041,0.477,0.219,0.633
				c0.221,0.19,0.585,0.202,0.882,0.031c0.348-0.2,0.506-0.573,0.425-0.997c-0.098-0.528-0.387-0.891-0.837-1.056
				c-0.635-0.235-1.507-0.009-2.222,0.571c-1.884,1.529-2.683,3.994-2.245,6.939c0.035,0.235,0.079,0.467,0.129,0.7
				c-0.1-0.431-0.19-0.877-0.26-1.341c-0.238-1.541-0.295-3.77,0.776-5.641c0.913-1.59,2.613-2.738,4.049-2.73
				c0.492,0.003,0.968,0.15,1.374,0.429c0.347,0.238,0.698,0.562,0.897,0.936C83.814,16.368,83.974,17.023,83.614,17.09z"/>
			<path fill="#C8C0DF" d="M85.367,17.563c0.151,0.077,0.577-1.475-0.499-2.947c-0.209-0.224-1.498-2.107-4.029-1.701
				c-2.441,0.213-4.692,2.835-5.01,5.632c-0.215,1.571-0.098,3.049,0.173,4.376c0.128,0.27,0.256,0.542,0.383,0.817
				c-0.357-1.524-0.521-3.282-0.199-5.128c0.419-2.701,2.573-4.974,4.74-5.089c2.15-0.285,3.158,1.335,3.349,1.517
				C85.177,16.24,85.123,17.552,85.367,17.563z"/>
			<path fill="#C8C0DF" d="M86.913,16.598c-0.209-2.469-1.716-4.489-4.012-5.111c-2.752-0.742-5.201,0.647-6.609,3.032
				c-0.589,1.002-0.88,2.215-1.051,3.359c-0.127,0.862-0.171,1.738-0.108,2.608c0.018,0.25,0.042,0.5,0.081,0.748
				c0.011,0.08,0.026,0.159,0.04,0.239c0.014,0.022,0.031,0.04,0.044,0.064c0.173,0.312,0.339,0.638,0.502,0.971
				c-0.617-2.93-0.325-5.702,0.846-7.69c1.628-2.754,4.187-3.285,6.039-2.863c2.193,0.5,3.733,2.331,3.933,4.67
				c0.082,0.947-0.101,1.66-0.387,2.198l0.001-0.043c-0.776,1.224-2.292,1.569-3.41,0.659c-0.236-0.193-0.653-0.505-0.96-0.341
				c-0.741,0.394-0.192,1.09,0.418,1.363c0.729,0.324,1.453,0.401,2.221,0.149C85.797,20.189,87.112,18.912,86.913,16.598z"/>
		</g>
		<g>
			<path fill="#C8C0DF" d="M89.295,27.889c-0.004-0.423-0.05-0.845-0.015-1.259c0.014-0.207,0.005-0.412,0.038-0.618
				c0.031-0.207,0.055-0.411,0.075-0.616c0.015-0.206,0.082-0.401,0.121-0.602l0.066-0.298c0.019-0.078,0.067-0.192,0.098-0.287
				c0.078-0.193,0.138-0.4,0.223-0.586l0.249-0.56c0.163-0.389,0.341-0.771,0.475-1.191l0.104-0.31
				c0.04-0.137,0.049-0.214,0.074-0.326c0.05-0.19,0.057-0.453,0.072-0.676c0.011-0.448-0.043-0.889-0.13-1.316
				c-0.096-0.425-0.219-0.837-0.348-1.241l-0.436,0.334c0.096,0.079,0.194,0.138,0.293,0.228c0.091,0.09,0.186,0.173,0.277,0.278
				c0.18,0.195,0.38,0.427,0.571,0.622l1.17,1.208c0.182,0.208,0.378,0.411,0.55,0.627l0.258,0.323
				c0.095,0.104,0.167,0.221,0.251,0.332c0.168,0.221,0.308,0.459,0.444,0.703c0.148,0.239,0.23,0.504,0.356,0.761
				c-0.08-0.267-0.113-0.559-0.234-0.818c-0.105-0.265-0.215-0.528-0.361-0.775c-0.128-0.26-0.287-0.494-0.45-0.729
				c-0.16-0.237-0.342-0.456-0.512-0.685c-0.358-0.441-0.717-0.875-1.085-1.297c-0.192-0.215-0.351-0.416-0.544-0.643
				c-0.088-0.112-0.2-0.219-0.306-0.328c-0.102-0.11-0.243-0.203-0.366-0.301l-0.716-0.576l0.283,0.911
				c0.242,0.792,0.438,1.586,0.44,2.371c-0.018,0.194-0.005,0.356-0.056,0.574c-0.02,0.094-0.038,0.226-0.058,0.289l-0.089,0.287
				c-0.104,0.388-0.266,0.772-0.413,1.163l-0.222,0.61c-0.074,0.203-0.118,0.405-0.177,0.606c-0.025,0.107-0.059,0.19-0.082,0.317
				l-0.046,0.323c-0.024,0.214-0.078,0.425-0.076,0.639c-0.009,0.215-0.014,0.43-0.014,0.641c-0.006,0.214,0.032,0.428,0.044,0.64
				c0.02,0.212,0.03,0.423,0.075,0.629L89.295,27.889z"/>
			<path fill="#C8C0DF" d="M99.53,32.984c-0.024-0.113-0.062-0.24-0.117-0.382c-0.493-1.293-1.427-2.455-2.15-3.623
				c-0.944-1.521-1.809-3.093-2.432-4.774c-1.075-2.896-1.077-6.169-2.478-8.938c-2.66-5.25-11.107-7.99-15.763-3.766
				c-5.327,4.833-0.214,12.905,2.143,17.908c0.951,2.016,1.946,3.998,2.98,5.974c1.509,2.883,3.022,5.763,4.499,8.661
				c1.088,2.135,2.164,4.277,3.212,6.432c0.558,1.143,1.092,2.294,1.581,3.454c2.184,5.178,3.646,11.197,2.396,16.795
				c-0.268,1.208-0.602,2.406-1.037,3.566c-0.337,0.899-0.699,2.029-1.53,2.592c-0.017,0.011-0.042,0.024-0.06,0.034
				c0.147,0.176,0.18,0.423,0.17,0.645c-0.007,0.129-0.029,0.249-0.073,0.356c0.042-0.016,0.083-0.035,0.124-0.059
				c4.377-2.496,3.872-9.288,3.465-13.542c-0.199-2.08-0.608-4.164-1.189-6.17c-0.369-1.264-0.789-2.511-1.24-3.748
				c-0.447-1.225-1.008-2.405-1.591-3.57c-2.469-4.934-5.172-9.747-7.653-14.674c-0.72-1.427-1.427-2.862-2.126-4.3
				c-1.675-3.444-3.674-6.843-4.779-10.527c-0.889-2.97-1.078-6.54,1.008-9.08c1.853-2.258,4.831-2.459,7.501-1.823
				c3.082,0.734,6.168,2.465,7.516,5.456c0.677,1.502,0.936,3.154,1.309,4.747c0.442,1.892,1.05,3.724,1.912,5.469
				c0.823,1.662,1.856,3.195,2.826,4.772c0.266,0.43,1.341,1.821,0.78,2.343c-0.527,0.487-1.978-0.322-2.45-0.556
				c-1.134-0.564-2.171-1.301-3.149-2.105c-0.835-0.684-1.624-1.425-2.541-2.001c-1.1-0.691-2.327-1.147-3.529-1.623
				c-1.687-0.669-3.477-1.395-4.889-2.532c0.516,0.423,1.105,0.808,1.768,1.163c2.216,1.187,4.822,1.808,6.831,3.358
				c1.718,1.324,3.066,2.914,5.02,3.954C96.596,33.293,99.903,34.797,99.53,32.984z"/>
			<path fill="#C8C0DF" d="M20.406,51.161c1.149,0.834,2.701-2.305,6.862-2.786c0.767-0.122,4.261-0.739,8.294,0.897
				c-0.835,0.487-1.511,1.36-1.885,2.353c-1.927-0.62-3.797-0.503-5.216,0.335c-1.722,1.019-2.107,3.434-1.519,4.735
				c0.553,1.227,2.149,2.21,3.999,1.587c0.813-0.273,1.394-1.15,1.322-1.996c-0.039-0.436-0.242-0.791-0.573-1.039
				c-0.081-0.085-0.178-0.156-0.293-0.203c-0.141-0.058-0.276-0.088-0.408-0.106c-0.053-0.012-0.101-0.027-0.158-0.035
				c-0.042-0.006-0.08,0.003-0.117,0.021c-0.557,0.029-0.971,0.383-1.022,0.775c-0.072,0.543,0.42,0.93,1.032,0.927
				c0.301,0,0.53,0.427,0.513,0.675c-0.034,0.484-0.563,0.692-0.972,0.747c-1.175,0.158-2.315-0.505-2.798-1.574
				c-0.477-1.054-0.186-2.954,1.635-4.009c1.373-0.794,2.741-0.55,4.363-0.144c-0.111,0.498-0.152,1.006-0.093,1.488
				c0.169,1.412,1.237,2.357,2.677,2.628c1.513,0.284,2.461-0.498,2.79-1.45c1.169,0.821,2.289,1.733,3.303,2.635
				c1.514,1.347,3.099,2.871,4.776,4.486c0.116,0.11,0.231,0.221,0.347,0.332c-6.017-4.566-9.407-5.16-11.278-4.658
				c-0.855,0.231-1.399,0.675-1.728,1.286c-0.217,0.403-0.179,1.066,0.05,1.379c0.261,0.445,1.057,0.699,1.716,0.382
				c0.473-0.226,0.733-0.858,0.315-1.032c-0.416-0.174-0.588,0.385-0.988,0.31c-0.888-0.168-0.462-1.412,0.192-1.869
				c0.155-0.079,0.327-0.145,0.514-0.195c1.696-0.456,4.7,0.031,9.923,3.779c-2.906-1.613-6.072-2.406-8.401-0.743
				c0,0,1.199-0.476,1.844-0.068c0.647,0.409,1.253,2.558,4.817,1.683c0,0-0.703,0.696,0.845,0.681c0,0-0.483,1.024,1.693,0.658
				c1.035-0.175,1.214,0.161,1.539,0.472c0,0-0.417,0.222,0.929,0.634c0.594,0.182,1.267,0.552,1.836,0.909
				c1.152,1.056,2.296,2.06,3.404,2.949c3.676,2.946,7.365,5.176,11.163,6.746c0.968,0.458,1.927,0.837,2.875,1.12
				c1.347,0.442,2.586,0.732,3.688,0.926c4.209,0.997,8.567,0.882,12.011-0.565c3.558-1.493,5.922-4.304,6.254-7.546
				c0.053-0.517,0.036-1.039-0.035-1.548c0.238,0.922,0.329,1.904,0.232,2.907c-0.159,1.671-0.81,3.499-1.441,5.266
				c-0.219,0.621-0.448,1.262-0.646,1.874l-0.096,0.289c-0.416,1.233-1.281,3.797,0.205,4.403c0.465,0.189,0.91,0.087,1.19-0.272
				c0.228-0.289,0.275-0.678,0.112-0.901c-0.01-0.013-0.023-0.013-0.034-0.022c-0.053-0.068-0.121-0.125-0.209-0.153
				c-0.234-0.07-0.479,0.06-0.549,0.292c-0.07,0.231,0.061,0.478,0.293,0.549c0.073,0.021,0.145,0.018,0.214,0.003
				c-0.013,0.021-0.022,0.044-0.039,0.064c-0.097,0.125-0.377,0.392-0.877,0.188c-1.25-0.509-0.44-2.912-0.051-4.065l0.098-0.293
				c0.197-0.61,0.424-1.249,0.645-1.866c0.632-1.785,1.29-3.629,1.453-5.333c0.211-2.228-0.425-4.363-1.738-5.949
				c-0.089-0.115-0.182-0.226-0.279-0.332c-0.01-0.011-0.018-0.024-0.036-0.039c-0.216-0.229-0.444-0.433-0.691-0.605
				c0.683,0.43,1.304,1.022,1.765,1.773c2.727,3.89,0.75,8.981,0.843,9.505c-0.255,1.305-0.317,2.404-0.022,2.496
				c0.301,0.095,0.862-0.919,1.13-2.276c-0.101-0.49,1.693-5.963-1.492-10.052c-1.393-2.002-3.91-2.982-5.628-2.541
				c-0.71,0.151-1.214,0.434-1.58,0.713c-0.238,0.155-0.448,0.33-0.625,0.523c-0.6,0.66-0.78,1.466-0.543,2.21
				c0.295,1.15,1.361,1.584,1.85,1.396c0.718-0.274,0.76-1.108-0.331-1.23c-0.598-0.066-1.074-0.38-1.199-0.965
				c0.038-0.399,0.212-0.794,0.526-1.14c0.207-0.228,0.467-0.424,0.772-0.579c0.824-0.238,1.628-0.107,2.293,0.384
				c0.098,0.075,0.193,0.156,0.28,0.243c0.002,0.004,0,0.009,0.003,0.013c0.108,0.105,0.199,0.219,0.289,0.332
				c0.37,0.511,0.567,1.136,0.512,1.742c-0.176,1.958-1.559,3.508-3.613,4.044c-1.904,0.498-4.59,0.081-6.414-2.585
				c-0.604-0.883-0.893-2.59-0.372-3.55c0.413-0.765,0.881-0.829,1.122-0.799c0.295,0.059,0.624,0.474,0.207,0.377
				c-0.492-0.116-1.019,0.677-0.375,1.119c0.554,0.383,1.118-0.081,1.144-0.744c0.02-0.503-0.49-0.962-0.942-1.02
				c-0.529-0.066-1.201,0.232-1.561,0.891c-0.578,1.078-0.384,2.764,0.378,3.856c1.937,2.779,4.886,3.237,6.881,2.715
				c1.977-0.515,3.406-1.998,3.748-3.839c-0.023,0.539-0.168,1.087-0.451,1.61c-0.987,1.829-3.209,2.999-5.524,2.914
				c-3.018-0.112-5.598-1.611-6.732-3.914c-0.677-1.375-0.706-2.926-0.076-4.253c0.396-0.833,1.014-1.49,1.759-1.908
				c0.826-0.412,1.674-0.099,2.214,0.246c0.738,0.472,1.005,1.682,1.556,1.497c0.315-0.106,0.351-0.535,0.22-0.97
				c-0.001-0.006-0.003-0.009-0.006-0.013c-0.1-0.315-0.295-0.629-0.549-0.811c0,0-0.018-0.011-0.033-0.019
				c-0.791-0.679-2.117-0.735-2.588-0.64c-1.39,0.281-2.312,1.168-2.925,2.423c-0.749,1.535-0.615,3.201,0.098,4.652
				c1.178,2.391,3.937,3.865,7.053,3.98c2.417,0.088,4.738-1.138,5.773-3.056c0.754-1.391,0.622-2.956-0.295-4.116
				c-0.175-0.237-0.383-0.455-0.623-0.633c-0.363-0.27-0.767-0.436-1.192-0.508c0.868-0.058,1.882,0.193,2.937,0.914
				c1.425,0.978,2.152,2.797,1.939,4.868c-0.312,3.093-2.544,5.797-5.963,7.233c-0.692,0.291-1.418,0.525-2.165,0.717
				c-3.695,0.756-8.086,0.165-11.626-1.753c-3.472-1.883-5.45-4.681-5.573-7.88c-0.044-1.159,0.376-2.198,1.07-2.647
				c0.459-0.299,1-0.31,1.566-0.031c0.42,0.206,0.639,0.581,0.587,1.002c-0.041,0.351-0.265,0.64-0.545,0.701
				c-0.056,0.013-0.115,0.014-0.176,0.011c0.111-0.062,0.203-0.164,0.244-0.296c0.081-0.268-0.068-0.551-0.336-0.633
				c-0.267-0.081-0.552,0.07-0.632,0.338c-0.008,0.025-0.006,0.053-0.008,0.079c-0.044,0.178-0.013,0.349,0.098,0.489
				c0.18,0.227,0.554,0.347,0.87,0.277c0.387-0.086,0.698-0.469,0.752-0.934c0.069-0.538-0.208-1.015-0.734-1.276
				c-0.656-0.322-1.289-0.305-1.835,0.048c-0.773,0.5-1.24,1.633-1.192,2.884c0.126,3.298,2.155,6.176,5.714,8.106
				c0.282,0.153,0.574,0.296,0.865,0.433c-0.55-0.242-1.109-0.509-1.672-0.812c-1.868-1-4.338-2.756-5.5-5.45
				c-0.986-2.288-0.844-5.076,0.338-6.63c0.404-0.531,0.954-0.934,1.591-1.148c0.54-0.182,1.179-0.299,1.749-0.207
				c0.298,0.047,1.141,0.409,0.917,0.856c-0.089,0.184-0.504,0.27-0.354,0.704c0.144,0.416,1.023,0.626,1.238-0.031
				c0.005-0.013,0.01-0.029,0.016-0.043c0.284-0.829-0.658-1.498-1.288-1.666c-0.908-0.239-2.037-0.083-2.876,0.336
				c-0.479,0.238-0.887,0.612-1.209,1.036c-1.234,1.626-1.389,4.528-0.366,6.9c1.191,2.763,3.711,4.561,5.619,5.581
				c1.293,0.693,2.531,1.208,3.705,1.586c-2.675-0.728-6.156-2.169-8.894-5.086c-2.592-2.657-3.306-6.859-1.666-9.306
				c1.446-2.573,4.035-2.347,4.387-2.406c2.043,0,3.425,1.131,3.636,0.872c0.209-0.1-1.133-1.83-3.614-1.861
				c-0.411,0.044-3.511-0.092-5.137,2.99c-1.765,2.831-0.748,7.418,2.031,10.047c3.273,3.241,7.327,4.54,10.115,5.085
				c-1.66-0.277-3.324-0.747-4.933-1.409c-4.145-1.704-7.269-4.477-8.567-7.608c-1.668-4.019-0.155-7.235,1.818-8.905
				c2.33-1.973,5.585-2.155,8.289-0.464c1.095,0.688,1.723,1.465,2.074,2.22l-0.046-0.039c0.698,1.843-0.167,3.774-2.066,4.248
				c-0.405,0.101-1.084,0.295-1.157,0.767c-0.175,1.123,1.03,1.096,1.826,0.655c0.948-0.528,1.623-1.253,1.976-2.293
				c0.599-1.755,0.285-4.227-2.392-5.901c-2.857-1.786-6.287-1.797-8.836,0.193c-3.055,2.383-3.543,6.183-2.099,9.66
				c0.429,1.038,1.081,2.038,1.901,2.975c-1.937-1.862-3.515-4.073-4.137-6.561c-0.23-0.92-0.35-2.845,0.389-3.618
				c0.544-0.569,0.645-1.153,0.202-1.424c0.107-0.48,0.107-0.961-0.109-1.421c-0.568-1.213-0.062-1.498,0.042-1.541
				c-0.518,0.035-2.136,0.874-2.583,2.325c0.379-1.226,0.973-2.265,1.657-3.341c0.3-0.473,1.09-1.615,0.169-1.899
				c-0.289-0.088-0.289-0.088-0.289-0.088s0.149-1.313-0.713-1.578c-0.238-0.075-0.684-0.159-0.95-0.138c0,0-0.58-1.171-1.095-0.86
				c-0.013,0.01-0.022,0.013-0.033,0.022c-0.478-0.612-0.149-1.125-0.149-1.125s-1.543,1.616-0.649,3.459
				c0,0-0.575-0.779-0.742-2.005c-0.302-2.236-2.253-3.117-3.221-2.771c-0.47,0.168-0.808,0.587-0.808,0.587
				s-1.653-0.406-2.317,1.741c0.162-0.52,1.284-0.897,1.8-0.916c0.019-0.001,0.039-0.001,0.056,0c0.79,0.017,1.534,0.49,2.118,0.982
				c1.268,1.07,1.948,2.608,2.514,4.131c0.306,0.829,0.551,1.676,0.82,2.518c1.083,3.396,1.975,6.454,4.186,9.742
				c2.002,2.975,4.365,5.118,7.639,7.142c-0.209-0.091-0.419-0.188-0.627-0.283c-1.962-0.898-3.808-2.461-5.456-3.83
				c-3.551-2.953-5.989-6.469-8.447-10.338c-4.18-6.578-8.604-13.507-14.033-11.8c-4.498-2.281-8.537-1.804-9.401-1.642
				C22.555,47.73,19.262,50.261,20.406,51.161z M35.527,55.693c-0.899-0.443-1.386-1.034-1.504-2.012
				c-0.046-0.394-0.028-0.795,0.044-1.19c0.863,0.274,1.735,0.665,2.602,1.139c0.109,0.585,0.734,0.699,1.033,0.919
				C38.762,55.332,36.847,56.341,35.527,55.693z M50.263,60.851c0.89,1.4,1.759,2.769,2.626,4.032
				c-0.004-0.003-0.005-0.006-0.009-0.008c-4.859-5.723-9.238-11.733-14.489-14.979c-0.355-0.237-0.705-0.45-1.057-0.652
				C42.233,48.221,46.31,54.631,50.263,60.851z M36.125,49.637c0.05-0.022,0.098-0.038,0.148-0.059
				c0.569,0.267,1.144,0.574,1.724,0.941c5.052,2.944,9.699,9.563,14.73,14.936c2.558,2.821,5.084,5.279,8.48,7.655
				c-2.171-1.241-4.318-2.709-6.464-4.427c-2.424-1.943-5.025-4.446-7.542-6.865c-1.681-1.616-3.268-3.143-4.789-4.496
				c-1.203-1.071-2.355-2.004-3.457-2.807c0.038-0.362-0.006-0.734-0.158-1.059c-0.024-0.064-0.05-0.124-0.087-0.178
				c-0.009-0.014-0.021-0.024-0.03-0.037c-0.049-0.076-0.11-0.145-0.172-0.211c-0.004-0.005-0.007-0.01-0.011-0.014
				c-0.061-0.063-0.133-0.121-0.208-0.174c-0.015-0.011-0.029-0.022-0.043-0.031c-0.061-0.041-0.129-0.075-0.201-0.109
				c-0.026-0.011-0.053-0.023-0.076-0.033c-0.048-0.019-0.088-0.044-0.138-0.058c-0.028-0.009-0.055-0.011-0.082-0.009
				c-0.358-0.069-0.719,0.02-0.987,0.271c-0.045,0.042-0.07,0.09-0.096,0.137c-0.844-0.492-1.652-0.886-2.424-1.181
				C34.581,50.867,35.251,50.032,36.125,49.637z M75.551,75.267c-1.443-2.362-2.371-3.177-4.225-2.953
				c-1.959,0.236-2.999-0.784-2.999-0.784c2.714,5.908,11.169,7.61,16.891,3.817c0,0-1.235,0.478-1.701,0.496
				c-0.814,0.027-1.331-0.213-1.954-0.73c-0.951-0.792-1.677-0.129-1.677-0.129c-1.391-1.803-1.929-0.886-1.929-0.886
				c-1.235-1.805-3.323-1.583-3.323-1.583c0.57,0.126,0.881,1.132,1.105,2.112c0.219,0.981,1.456,1.781,1.456,1.781
				C76.595,76.344,75.897,75.837,75.551,75.267z M89.636,73.06c-1.104,2.35-3.898,5.334-11.429,5.957
				c-4.895,0.406-6.217,1.567-6.147,2.291c0,0,0.076-0.259,0.605-0.386c0.53-0.127,0.916-0.015,0.916-0.015
				c0.452,0.624,2.042-0.251,2.042-0.251c0.529,1.561,3.541-0.095,3.541-0.095c-0.912,0.719-0.812,3.277-0.812,3.277
				c0.627-0.943,1.227-0.347,3.12-1.063c1.507-0.568,2.224-2.249,2.456-2.916c-0.206,1.048,0.902,2.487,0.902,2.487
				c0.213-0.5,0.624-0.453,1.507-1.32c0.886-0.867-0.156-2.364,0.906-3.602C88.903,75.493,89.636,73.06,89.636,73.06z
				 M85.801,74.476c2.472-0.545,4.101-4.803,3.58-6.59c0,0-0.22,1.955-1.822,3.161c-0.931,0.701-1.293,0.342-2.293,0.854
				c-0.999,0.511-0.561,1.233-0.561,1.233c-1.061-0.458-2.613,0.2-2.613,0.2C83.014,73.092,83.56,74.97,85.801,74.476z
				 M74.778,78.738c0.006-0.075-0.048-0.14-0.124-0.147c-7.743-0.659-15.418-4.286-22.813-10.779c-0.051-0.045-5-4.339-7.364-2.154
				c-0.003,0.002-0.007,0.005-0.009,0.006c-0.058,0.049-0.106,0.099-0.151,0.153c-0.005,0.007-0.013,0.012-0.019,0.019
				c-0.006,0.004-0.001,0.01-0.006,0.016c-0.596,0.775-0.096,2.081,0.751,1.857c0.805-0.213,0.199-0.998,0.469-1.655
				c0.258-0.625,1.274-0.705,2.307-0.39l0.001-0.006c1.531,0.56,3.078,1.684,3.841,2.356c2.171,1.907,4.365,3.56,6.581,4.972
				c-0.436-0.206-0.876-0.401-1.326-0.578c-3.232-1.271-6.612-0.668-6.612-0.668c1.244-0.117,1.631,0.71,2.666,1.736
				c1.037,1.026,2.866,0.377,3.831,0.245c0.964-0.133,1.323,0.545,1.323,0.545c-0.664,0.082-1.368,0.032-2.029,1.038
				c-0.66,1.004,0.556,2.631,0.556,2.631c-0.525-1.494,0.991-1.222,0.991-1.222c0.347,0.789,2.105-0.32,2.105-0.32
				c0.501,1.148,3.696-0.717,2.914-0.246c-0.073,0.044-0.139,0.095-0.194,0.148c-0.561,0.523-0.431,1.438-0.431,1.438
				s0.884-0.798,2.077-0.29c0.618,0.261,1.34,0.623,2.008,0.614c0.345-0.008,0.638-0.147,0.977-0.198
				c0.445-0.065,0.914-0.214,1.237-0.208c0.191,0.003,0.674,0.172,0.441,0.461c-0.1,0.118-0.581,0.083-1.156,0.119
				c-0.358,0.022-1.288,0.219-1.567,0.511c-0.892,0.938-0.658,2.622-0.658,2.622c0.204-0.433,0.818-0.599,2.018-0.374
				c1.201,0.224,3.042-1.295,3.625-1.822c0.414-0.374,0.936-0.462,1.475-0.433c0.714,0.04,1.403,0.069,2.116,0.126
				C74.706,78.866,74.772,78.81,74.778,78.738z M48.715,55.41c0.46,0.036,0.957,0.451,1.259,1.851
				c0.299,1.399,1.192,1.725,2.389,2.931c1.196,1.206,1.749,2.631,2.475,4.005c0,0-0.121-0.455-0.554-1.427
				c-0.998-2.236-0.783-3.219-2.701-7.68c-2.066-4.805-4.136-4.044-4.136-4.044c1.411,0.173,2.394,2.41,2.394,2.41
				c-0.527,0.806,0.296,1.682,0.914,2.184C49.86,55.22,48.715,55.41,48.715,55.41z"/>
		</g>
	</g>
</g>
</svg>
